{
    "_id": "VRUYc3QyRjjOjppc",
    "content": "<h1>Turpin Rowe Lumberjack</h1>\n<p>You are a feller of trees and a skilled axe wielder, trained in the art of forestry by the hard-working loggers of Turpin Rowe. </span></p>\n<h2>@Compendium[pf2e.feats-srd.Turpin Rowe Lumberjack Dedication]{Turpin Rowe Lumberjack Dedication} Feat 2</h2>\n<p><strong>Prerequisites</strong> trained in Survival</p>\n<p><strong>Access</strong> You must befriend at least one Turpin Rowe logger.</p>\n<p></span></p>\n<hr />\n<p>Your logging training has made you intimately familiar with all aspects of forestry, and you have trained extensively to reach around trees and utilize their bulk to your advantage. You become trained in Milling Lore and Forest Lore, or an expert if you were already trained. You can always Take Cover when you are within forest terrain to gain cover, even if you're not next to an obstacle you can Take Cover behind. In addition, any enemy who gains standard cover from a tree gains only lesser cover against your attacks (or only standard cover, if the enemy otherwise gains greater cover).</p>\n<p><strong>Special</strong> You cannot select another dedication feat until you have gained two other feats from the Turpin Rowe lumberjack archetype.</p>\n<h2>@Compendium[pf2e.feats-srd.Axe Climber]{Axe Climber} Feat 4</h2>\n<p><strong>Prerequisites</strong> Turpin Rowe Lumberjack Dedication</p>\n<p></span></p>\n<hr />\n<p>When you are climbing a wooden surface and have a @Compendium[pf2e.equipment-srd.Hatchet]{Hatchet} or @Compendium[pf2e.equipment-srd.Battle Axe]{Battle Axe} in each hand, you have a climb Speed equal to half your normal Speed. You must still have both legs available to climb and can't use either of the axes in combat while climbing. This feat can also be used to climb a surface of ice if you have a @Compendium[pf2e.equipment-srd.Light Pick]{Light Pick} in each hand.</p>\n<h2>@Compendium[pf2e.feats-srd.Log Roll]{Log Roll} Feat 4</h2>\n<p><strong>Prerequisites</strong> Turpin Rowe Lumberjack Dedication</p>\n<p><strong>Requirements</strong> You and an adjacent creature are both on a narrow surface or uneven ground and the other creature is flat-footed.</p>\n<p></span></p>\n<hr />\n<p>You shuffle your feet to dislodge the surface beneath you or otherwise cause your opponent to become unsteady. Attempt an Acrobatics check against the adjacent creature's Reflex saving throw DC. On a success, the creature falls. On a critical failure, you fall.</p>\n<h2>@Compendium[pf2e.feats-srd.Axe Thrower]{Axe Thrower} Feat 6</h2>\n<p><strong>Prerequisites</strong> Turpin Rowe Lumberjack Dedication</p>\n<p></span></p>\n<hr />\n<p>You have mastered the weight and balance of a variety of axes and can lob them with ease. Any one-handed axe weapon you wield has the thrown trait with a range of 10 feet. For axes that already have the thrown trait, the range increases by 10 feet. When you critically succeed at an attack roll with a thrown axe weapon, you apply the axe's critical specialization effect.</p>\n<h2>@Compendium[pf2e.feats-srd.Widen the Gap]{Widen the Gap} Feat 10</h2>\n<p>Once you have penetrated a foe's defenses, you can home in on the same spot to exploit your opponent's wound and deal some serious damage. The second time you hit and deal damage with a melee axe Strike to the same opponent or object during your turn, you ignore half of the opponent's or object's Hardness, if any. If you hit and deal damage with a melee axe Strike to the same opponent or object a third or fourth time during your turn, you ignore all of its Hardness, if any.</p>",
    "flags": {},
    "name": "Turpin Rowe Lumberjack",
    "permission": {
        "default": 0
    }
}
