{
    "_id": "5qi0swjGo1aclB2U",
    "data": {
        "boosts": {
            "0": {
                "value": [
                    "int",
                    "wis"
                ]
            },
            "1": {
                "value": [
                    "cha",
                    "con",
                    "dex",
                    "int",
                    "str",
                    "wis"
                ]
            }
        },
        "description": {
            "value": "<p>You come from a small community far from any large cities, but the Magaambya is known even in your isolated corner of the world. You have shown more scholarly talent than anyone from your village in many years, perhaps even generations, and the village elders have insisted you explore your potential at the Magaambya. Whether you were eager to leave or not seemed irrelevant to the elders; you had the talent, so you must go. You don't know how the elders had the connections or influence to sponsor your education there, but you've left your tightknit community behind for the city of Nantambu and the Magaambya at its heart.</p>\n<p>Choose two ability boosts. One must be to <strong>Intelligence</strong> or <strong>Wisdom</strong>, and one is a free ability boost.</p>\n<p>You're trained in the Crafting skill. You gain the @Compendium[pf2e.feats-srd.Crafter's Appraisal]{Crafter's Appraisal} skill feat. You're also trained in the Lore skill appropriate for the terrain around your community (such as Forest Lore or Jungle Lore).</p>\n<p>Your recommended primary branch is the Casacade Bearers.</p>"
        },
        "items": {
            "pyob4": {
                "id": "voYr7ygVcWmlg1f4",
                "img": "systems/pf2e/icons/features/feats/feats.webp",
                "level": 1,
                "name": "Crafter's Appraisal",
                "pack": "pf2e.feats-srd"
            }
        },
        "rules": [],
        "source": {
            "value": "Strength of Thousands Player's Guide"
        },
        "trainedLore": "<Terrain> Lore",
        "trainedSkills": {
            "custom": "",
            "value": [
                "cra"
            ]
        },
        "traits": {
            "custom": "",
            "rarity": {
                "value": "uncommon"
            },
            "value": []
        }
    },
    "effects": [],
    "flags": {},
    "img": "systems/pf2e/icons/default-icons/background.svg",
    "name": "Sponsored by a Village (Crafting)",
    "type": "background"
}
