{
    "_id": "2Mm0BHMJZhqIqoQG",
    "data": {
        "boosts": {
            "0": {
                "value": [
                    "int",
                    "wis"
                ]
            },
            "1": {
                "value": [
                    "cha",
                    "con",
                    "dex",
                    "int",
                    "str",
                    "wis"
                ]
            }
        },
        "description": {
            "value": "<p>People die. This is the unfortunate fact of life on which you've founded your business, because wherever people die, there is a demand for mortuary services. You might be a Pharasmin priest or a secular professional, but your job is seeing to the body, comforting the bereaved, and making sure that the deceased goes to their ultimate reward with all due dignity. Of course, someone in your position sees a lot of strange deaths, and chances are one of them set you on the road to adventure.</p>\n<p>Choose two ability boosts. One must be to <strong>Intelligence</strong> or <strong>Wisdom</strong>, and one is a free ability boost.</p>\n<p>You're trained in the Medicine skill and a Lore skill specializing in one local type of undead. You gain the @Compendium[pf2e.feats-srd.Forensic Acumen]{Forensic Acumen} skill feat.</p>"
        },
        "items": {
            "o5yn4": {
                "id": "Ws9JlysHcFoz6WAQ",
                "img": "systems/pf2e/icons/features/feats/feats.webp",
                "level": 1,
                "name": "Forensic Acumen",
                "pack": "pf2e.feats-srd"
            }
        },
        "rules": [],
        "source": {
            "value": ""
        },
        "trainedLore": "",
        "trainedSkills": {
            "custom": "",
            "value": [
                "med"
            ]
        },
        "traits": {
            "custom": "",
            "rarity": {
                "value": "common"
            },
            "value": []
        }
    },
    "effects": [],
    "flags": {},
    "img": "systems/pf2e/icons/default-icons/background.svg",
    "name": "Undertaker",
    "type": "background"
}
