{
    "_id": "GS4YvQieBS11JNYR",
    "data": {
        "activation": {
            "condition": "",
            "cost": 0,
            "type": ""
        },
        "autoDestroy": {
            "_deprecated": true,
            "value": true
        },
        "autoUse": {
            "_deprecated": true,
            "value": true
        },
        "baseItem": null,
        "brokenThreshold": {
            "value": 0
        },
        "bulkCapacity": {
            "value": ""
        },
        "charges": {
            "_deprecated": true,
            "max": 1,
            "value": 1
        },
        "collapsed": {
            "value": false
        },
        "consumableType": {
            "value": "mutagen"
        },
        "consume": {
            "_deprecated": true,
            "value": ""
        },
        "containerId": {
            "value": ""
        },
        "description": {
            "value": "<p><strong>Activate</strong> <span class=\"pf2-icon\">A</span> Interact</p>\n<hr />\n<p>Your skin grows tough scales like a drake, your eyesight become sharp and your pupils slitted, and your limbs grow wiry and quick, but your mind and reflexes become slow.</p>\n<p><strong>Benefit</strong> You gain +4 item bonus to AC, a Dexterity cap of +2 (as usual, use your lowest Dexterity cap if you have more than one), and a +1 item bonus to Perception checks. If you're wearing armor, you still calculate your proficiency bonus to AC based on your proficiency in the armor you're wearing, even if the drakeheart mutagen has a higher item bonus. You also gain the @Compendium[pf2e.actionspf2e.Final Surge]{Final Surge} action.</p>\n<p><strong>Drawback</strong> You take a -1 penalty to Will saves, Reflex saves, and all skill checks to @Compendium[pf2e.actionspf2e.Recall Knowledge (Lore)]{Recall Knowledge}.</p>\n<p><strong>Duration</strong> 1 minute or until you use Final Surge, whichever comes first.</p>\n<p>@Compendium[pf2e.consumable-effects.Effect: Drakeheart Mutagen (Lesser)]{Effect: Drakeheart Mutagen (Lesser)}</p>"
        },
        "duration": {
            "units": "",
            "value": null
        },
        "equipped": {
            "value": false
        },
        "equippedBulk": {
            "value": ""
        },
        "hardness": {
            "value": 0
        },
        "hp": {
            "value": 0
        },
        "identification": {
            "misidentified": {},
            "status": "identified",
            "unidentified": {
                "data": {
                    "description": {
                        "value": ""
                    }
                },
                "img": "",
                "name": ""
            }
        },
        "level": {
            "value": 1
        },
        "maxHp": {
            "value": 0
        },
        "negateBulk": {
            "value": "0"
        },
        "preciousMaterial": {
            "value": ""
        },
        "preciousMaterialGrade": {
            "value": ""
        },
        "price": {
            "value": "4 gp"
        },
        "quantity": {
            "value": 1
        },
        "range": {
            "long": null,
            "units": "",
            "value": null
        },
        "rules": [],
        "size": {
            "value": "med"
        },
        "source": {
            "value": "Pathfinder Advanced Player's Guide"
        },
        "spell": {
            "data": null,
            "heightenedLevel": null
        },
        "stackGroup": {
            "value": ""
        },
        "target": {
            "type": "",
            "units": "",
            "value": null
        },
        "traits": {
            "custom": "",
            "rarity": {
                "value": "common"
            },
            "value": [
                "alchemical",
                "consumable",
                "elixir",
                "mutagen",
                "polymorph"
            ]
        },
        "usage": {
            "value": "held-in-one-hand"
        },
        "uses": {
            "autoDestroy": true,
            "autoUse": true,
            "max": 0,
            "per": null,
            "value": 0
        },
        "weight": {
            "value": "L"
        }
    },
    "effects": [],
    "flags": {},
    "img": "systems/pf2e/icons/equipment/alchemical-items/alchemical-elixirs/drakeheart-mutagen.webp",
    "name": "Drakeheart Mutagen (Lesser)",
    "type": "consumable"
}
