{
    "_id": "FCA7CE4mK85SVLz3",
    "data": {
        "MAP": {
            "value": ""
        },
        "baseItem": "starknife",
        "bonus": {
            "value": 1
        },
        "bonusDamage": {
            "value": 0
        },
        "brokenThreshold": {
            "value": 0
        },
        "bulkCapacity": {
            "value": ""
        },
        "category": "martial",
        "collapsed": {
            "value": false
        },
        "containerId": {
            "value": ""
        },
        "damage": {
            "damageType": "piercing",
            "dice": 1,
            "die": "d4",
            "value": ""
        },
        "description": {
            "value": "<p>This +1 @Compendium[pf2e.equipment-srd.Returning]{Returning} striking cold iron starknife has an ornate central grip that depicts a silver dragon, the neck, wings, and tail of which wrap over and around the handle in knots to support the weapon's four cold iron blades. While the handle is polished to a mirrorlike shine, the blades of Eclipse are a flat black and entirely unreflective. Eclipse is also the portal key required to activate Dreamgate at Alseta's Ring.</p>\n<p>Whenever you score a critical hit with Eclipse, the target creature's eyes are plunged into darkness; if that creature doesn't have darkvision, it is blinded for 1 round.</p>\n<hr />\n<p><strong>Activate</strong> <span class=\"pf2-icon\">A</span> command</p>\n<p><strong>Frequency</strong> once per day</p>\n<p><strong>Effect</strong> <em>Eclipse's</em> blades glow like starlit night sky, causing it to shed light as a torch until you deactivate it as a single action, which has the concentrate trait.</p>\n<hr />\n<p><strong>Activate</strong> <span class=\"pf2-icon\">R</span> envision</p>\n<p><strong>Frequency</strong> three times per day</p>\n<p><strong>Trigger</strong> You attempt a Stealth check to Hide or Sneak, but you haven't rolled yet</p>\n<p><strong>Effect</strong> You absorb light, gaining a +2 status bonus to the Stealth check.</p>"
        },
        "equipped": {
            "value": false
        },
        "equippedBulk": {
            "value": ""
        },
        "group": "knife",
        "hands": {
            "value": ""
        },
        "hardness": {
            "value": 0
        },
        "hp": {
            "value": 0
        },
        "identification": {
            "misidentified": {},
            "status": "identified",
            "unidentified": {
                "data": {
                    "description": {
                        "value": ""
                    }
                },
                "img": "",
                "name": ""
            }
        },
        "invested": {
            "value": false
        },
        "level": {
            "value": 8
        },
        "maxHp": {
            "value": 0
        },
        "negateBulk": {
            "value": "0"
        },
        "potencyRune": {
            "value": 1
        },
        "preciousMaterial": {
            "value": "coldIron"
        },
        "preciousMaterialGrade": {
            "value": "low"
        },
        "price": {
            "value": "450 gp"
        },
        "property1": {
            "critDamage": "",
            "critDamageType": "",
            "critDice": null,
            "critDie": "",
            "criticalConditionType": "",
            "criticalConditionValue": null,
            "damageType": "",
            "dice": null,
            "die": "",
            "strikeConditionType": "",
            "strikeConditionValue": null,
            "value": ""
        },
        "propertyRune1": {
            "value": "returning"
        },
        "propertyRune2": {
            "value": null
        },
        "propertyRune3": {
            "value": null
        },
        "propertyRune4": {
            "value": null
        },
        "quantity": {
            "value": 1
        },
        "range": null,
        "reload": {
            "value": ""
        },
        "rules": [],
        "size": {
            "value": "med"
        },
        "source": {
            "value": "Pathfinder #146: Cult of Cinders"
        },
        "specific": {
            "material": {
                "grade": "low",
                "type": "coldIron"
            },
            "runes": {
                "potency": 1,
                "striking": "striking"
            },
            "value": true
        },
        "splashDamage": {
            "value": null
        },
        "stackGroup": {
            "value": ""
        },
        "strikingRune": {
            "value": "striking"
        },
        "traits": {
            "custom": "",
            "rarity": {
                "value": "unique"
            },
            "value": [
                "agile",
                "deadly-d6",
                "evocation",
                "finesse",
                "light",
                "magical",
                "thrown-20",
                "versatile-s"
            ]
        },
        "usage": {
            "value": "held-in-one-hand"
        },
        "weight": {
            "value": "L"
        }
    },
    "effects": [],
    "flags": {},
    "img": "systems/pf2e/icons/equipment/weapons/specific-magic-weapons/eclipse.webp",
    "name": "Eclipse",
    "type": "weapon"
}
