{
    "_id": "HuGZspUvJqR09Y8u",
    "data": {
        "baseItem": null,
        "brokenThreshold": {
            "value": 0
        },
        "bulkCapacity": {
            "value": ""
        },
        "collapsed": {
            "value": false
        },
        "containerId": {
            "value": ""
        },
        "description": {
            "value": "<p>This powerful magic rod is inimical to all magic.</p>\n<hr />\n<p><strong>Activate</strong> <span class=\"pf2-icon\">2</span> Interact;</p>\n<p><strong>Effect</strong> You touch the rod to a magical effect or magic item and attempt to counteract the effect or item. Regardless of the result, the rod of cancellation can't be activated again for [[/r 2d6]] hours.</p>\n<p>On a success, the effect or item is deactivated for the same amount of time, and its duration, if any, continues to expire during that time. If you choose, you can instead completely drain the rod of cancellation's magic on a success in order to completely drain the magic from the effect or item. If you do, both become completely non-magical and their magic can't be recovered, even by the <em>@Compendium[pf2e.spells-srd.Remake]{Remake}</em> spell.</p>\n<p>The rod of cancellation automatically fails to counteract most artifacts and similarly powerful items, but it reacts explosively when activated against a @Compendium[pf2e.equipment-srd.Sphere of Annihilation]{Sphere of Annihilation} without a counteract check.</p>"
        },
        "equipped": {
            "value": false
        },
        "equippedBulk": {
            "value": ""
        },
        "hardness": {
            "value": 0
        },
        "hp": {
            "value": 0
        },
        "identification": {
            "misidentified": {},
            "status": "identified",
            "unidentified": {
                "data": {
                    "description": {
                        "value": ""
                    }
                },
                "img": "",
                "name": ""
            }
        },
        "invested": {
            "value": false
        },
        "level": {
            "value": 20
        },
        "maxHp": {
            "value": 0
        },
        "negateBulk": {
            "value": "0"
        },
        "preciousMaterial": {
            "value": ""
        },
        "preciousMaterialGrade": {
            "value": ""
        },
        "price": {
            "value": "75,000 gp"
        },
        "quantity": {
            "value": 1
        },
        "rules": [],
        "size": {
            "value": "med"
        },
        "source": {
            "value": "Pathfinder Advanced Player's Guide"
        },
        "stackGroup": {
            "value": ""
        },
        "traits": {
            "custom": "",
            "rarity": {
                "value": "rare"
            },
            "value": [
                "abjuration",
                "magical"
            ]
        },
        "usage": {
            "value": "held-in-one-hand"
        },
        "weight": {
            "value": "1"
        }
    },
    "effects": [],
    "flags": {},
    "img": "systems/pf2e/icons/equipment/held-items/rod-of-cancellation.webp",
    "name": "Rod of Cancellation",
    "type": "equipment"
}
