{
    "_id": "wv0hiJIGQjTU1pnO",
    "data": {
        "abilities": {
            "cha": {
                "mod": -1
            },
            "con": {
                "mod": 3
            },
            "dex": {
                "mod": 6
            },
            "int": {
                "mod": -2
            },
            "str": {
                "mod": 4
            },
            "wis": {
                "mod": 4
            }
        },
        "attributes": {
            "ac": {
                "details": "all-around vision",
                "value": 27
            },
            "allSaves": {
                "value": null
            },
            "hp": {
                "details": "",
                "max": 158,
                "temp": 0,
                "value": 158
            },
            "initiative": {
                "ability": "perception"
            },
            "perception": {
                "value": 17
            },
            "shield": {
                "ac": 2,
                "brokenThreshold": 0,
                "hardness": 0,
                "max": 0,
                "value": 0
            },
            "speed": {
                "otherSpeeds": [
                    {
                        "exceptions": "",
                        "label": "Swim",
                        "type": "swim",
                        "value": "30"
                    }
                ],
                "value": "20"
            }
        },
        "details": {
            "alignment": {
                "value": "NE"
            },
            "blurb": "",
            "creatureType": "",
            "level": {
                "value": 9
            },
            "privateNotes": "",
            "publicNotes": "<p>A galvo is a bizarre humanoid creature made up of electric eels-dozens of them, transmogrified into one cooperative, electrified body. The story of their creation is lost to antiquity, though their propensity for attacking sea devils and alghollthus suggests they might have been engineered by some enemy of these creatures. Modern galvos aren't choosy about their prey, and because they can operate as well on land as they do in the water, they enjoy feasting on aquatic creatures and land dwellers alike.</p>\n<p>A galvo's body forms something roughly shaped like a human, but with eels continually moving throughout it and shifting the shape of its mass. The galvo can even disperse into a swarm of eels, though it usually does so only to travel through narrow spaces or otherwise accomplish things it's incapable of in its normal form.</p>\n<p>These component eels share some element of a collective consciousness, giving the galvo more intelligence than a typical animal. Individual galvos generally don't have any need for or interest in socializing, though they sometimes gather to collaborate while hunting.</p>\n<p>Electricity arcs throughout a galvo, and the more the eels that make it up move about, the larger and more impressive the electric display. This electricity creates a damaging field around the galvo that causes small fish and other sea life to drop dead. Many galvos contentedly snack on these prey. Even beyond the harmful field, underwater creatures feel a faint unease from galvos, and might notice how ferrous trinkets and sediment slowly drift toward them.</p>\n<p>A galvo attack could come from a lone creature or a small group. In addition to dangers of the electricity field generated by galvos' eels, galvos might attack by biting with their eels' maws or even firing off one of their eels like a dart, striking a distant target with a living, electrified projectile.</p>",
            "source": {
                "value": "Pathfinder Bestiary 3"
            }
        },
        "resources": {},
        "saves": {
            "fortitude": {
                "saveDetail": "",
                "value": 18
            },
            "reflex": {
                "saveDetail": "",
                "value": 21
            },
            "will": {
                "saveDetail": "",
                "value": 15
            }
        },
        "traits": {
            "attitude": {
                "value": "hostile"
            },
            "ci": [],
            "di": {
                "custom": "",
                "value": [
                    "precision",
                    "swarm-mind"
                ]
            },
            "dr": [
                {
                    "exceptions": "",
                    "label": "Bludgeoning",
                    "type": "bludgeoning",
                    "value": 5
                },
                {
                    "exceptions": "",
                    "label": "Electricity",
                    "type": "electricity",
                    "value": 12
                },
                {
                    "exceptions": "",
                    "label": "Slashing",
                    "type": "slashing",
                    "value": 8
                },
                {
                    "exceptions": "",
                    "label": "Piercing",
                    "type": "piercing",
                    "value": 8
                }
            ],
            "dv": [
                {
                    "exceptions": "",
                    "label": "Area Damage",
                    "type": "area-damage",
                    "value": "8"
                },
                {
                    "exceptions": "",
                    "label": "Splash Damage",
                    "type": "splash-damage",
                    "value": "8"
                }
            ],
            "languages": {
                "custom": "Can't Speak Any Language",
                "selected": [],
                "value": [
                    "aquan"
                ]
            },
            "rarity": {
                "value": "common"
            },
            "senses": {
                "value": "darkvision"
            },
            "size": {
                "value": "med"
            },
            "traits": {
                "custom": "",
                "value": [
                    "aberration",
                    "amphibious"
                ]
            }
        }
    },
    "effects": [],
    "flags": {},
    "img": "systems/pf2e/icons/default-icons/npc.svg",
    "items": [
        {
            "_id": "ozywltVfeeRvEgor",
            "data": {
                "attack": {
                    "value": ""
                },
                "attackEffects": {
                    "custom": "",
                    "value": []
                },
                "bonus": {
                    "value": 21
                },
                "damageRolls": {
                    "0": {
                        "damage": "2d6+7",
                        "damageType": "piercing"
                    },
                    "vlom5kdyn1m8ije9vanq": {
                        "damage": "1d12",
                        "damageType": "electricity"
                    }
                },
                "description": {
                    "value": ""
                },
                "rules": [],
                "slug": null,
                "source": {
                    "value": ""
                },
                "traits": {
                    "custom": "",
                    "rarity": {
                        "value": "common"
                    },
                    "value": [
                        "agile",
                        "finesse"
                    ]
                },
                "weaponType": {
                    "value": "melee"
                }
            },
            "effects": [],
            "flags": {},
            "img": "systems/pf2e/icons/default-icons/melee.svg",
            "name": "Eel Jaws",
            "sort": 100000,
            "type": "melee"
        },
        {
            "_id": "IFBwgiXBfRM7tF8Q",
            "data": {
                "attack": {
                    "value": ""
                },
                "attackEffects": {
                    "custom": "",
                    "value": []
                },
                "bonus": {
                    "value": 21
                },
                "damageRolls": {
                    "0": {
                        "damage": "1d6+7",
                        "damageType": "piercing"
                    },
                    "wyn9lhqgpbjsjmgxgh7w": {
                        "damage": "1d12",
                        "damageType": "electricity"
                    }
                },
                "description": {
                    "value": ""
                },
                "rules": [],
                "slug": null,
                "source": {
                    "value": ""
                },
                "traits": {
                    "custom": "",
                    "rarity": {
                        "value": "common"
                    },
                    "value": [
                        "agile",
                        "thrown-20"
                    ]
                },
                "weaponType": {
                    "value": "ranged"
                }
            },
            "effects": [],
            "flags": {},
            "img": "systems/pf2e/icons/default-icons/melee.svg",
            "name": "Eel Dart",
            "sort": 200000,
            "type": "melee"
        },
        {
            "_id": "kWiBTKt3h01RReit",
            "data": {
                "actionCategory": {
                    "value": "interaction"
                },
                "actionType": {
                    "value": "passive"
                },
                "actions": {
                    "value": null
                },
                "description": {
                    "value": "<p>@Localize[PF2E.NPC.Abilities.Glossary.Darkvision]</p>"
                },
                "requirements": {
                    "value": ""
                },
                "rules": [],
                "slug": "darkvision",
                "source": {
                    "value": ""
                },
                "traits": {
                    "custom": "",
                    "rarity": {
                        "value": "common"
                    },
                    "value": []
                },
                "trigger": {
                    "value": ""
                },
                "weapon": {
                    "value": ""
                }
            },
            "effects": [],
            "flags": {
                "core": {
                    "sourceId": "Compendium.pf2e.bestiary-ability-glossary-srd.qCCLZhnp2HhP3Ex6"
                }
            },
            "img": "systems/pf2e/icons/default-icons/action.svg",
            "name": "Darkvision",
            "sort": 300000,
            "type": "action"
        },
        {
            "_id": "KUErEL0JPCYaIeu0",
            "data": {
                "actionCategory": {
                    "value": "defensive"
                },
                "actionType": {
                    "value": "passive"
                },
                "actions": {
                    "value": null
                },
                "description": {
                    "value": "<p>5 feet @Compendium[pf2e.bestiary-ability-glossary-srd.Aura]{Aura}.</p>\n<hr />\n<p>[[/r {1d12}[electricity]]]{1d12 electricity damage} (<span data-pf2-check=\"reflex\" data-pf2-dc=\"26\" data-pf2-traits=\"electricity,aura,damaging-effect\" data-pf2-label=\"Electrical Field DC\" data-pf2-show-dc=\"gm\">basic Reflex</span>)</p>"
                },
                "requirements": {
                    "value": ""
                },
                "rules": [],
                "slug": null,
                "source": {
                    "value": ""
                },
                "traits": {
                    "custom": "",
                    "rarity": {
                        "value": "common"
                    },
                    "value": [
                        "electricity",
                        "aura"
                    ]
                },
                "trigger": {
                    "value": ""
                },
                "weapon": {
                    "value": ""
                }
            },
            "effects": [],
            "flags": {},
            "img": "systems/pf2e/icons/default-icons/mystery-man.svg",
            "name": "Electrical Field",
            "sort": 400000,
            "type": "action"
        },
        {
            "_id": "kqcQU0n1PhfM4fgW",
            "data": {
                "actionCategory": {
                    "value": "defensive"
                },
                "actionType": {
                    "value": "passive"
                },
                "actions": {
                    "value": null
                },
                "description": {
                    "value": "<p>@Localize[PF2E.NPC.Abilities.Glossary.SwarmMind]</p>"
                },
                "requirements": {
                    "value": ""
                },
                "rules": [],
                "slug": "swarm-mind",
                "source": {
                    "value": ""
                },
                "traits": {
                    "custom": "",
                    "rarity": {
                        "value": "common"
                    },
                    "value": []
                },
                "trigger": {
                    "value": ""
                },
                "weapon": {
                    "value": ""
                }
            },
            "effects": [],
            "flags": {
                "core": {
                    "sourceId": "Compendium.pf2e.bestiary-ability-glossary-srd.baA0nSMhQyFyJIia"
                }
            },
            "img": "systems/pf2e/icons/default-icons/action.svg",
            "name": "Swarm Mind",
            "sort": 500000,
            "type": "action"
        },
        {
            "_id": "2ERFu4hiXliGhhKj",
            "data": {
                "actionCategory": {
                    "value": "defensive"
                },
                "actionType": {
                    "value": "passive"
                },
                "actions": {
                    "value": null
                },
                "description": {
                    "value": "<p>@Localize[PF2E.NPC.Abilities.Glossary.AllAroundVision]</p>"
                },
                "requirements": {
                    "value": ""
                },
                "rules": [],
                "slug": "all-around-vision",
                "source": {
                    "value": ""
                },
                "traits": {
                    "custom": "",
                    "rarity": {
                        "value": "common"
                    },
                    "value": []
                },
                "trigger": {
                    "value": ""
                },
                "weapon": {
                    "value": ""
                }
            },
            "effects": [],
            "flags": {
                "core": {
                    "sourceId": "Compendium.pf2e.bestiary-ability-glossary-srd.9qV49KjZujZnSp6w"
                }
            },
            "img": "systems/pf2e/icons/default-icons/action.svg",
            "name": "All-Around Vision",
            "sort": 600000,
            "type": "action"
        },
        {
            "_id": "pRXjlEM0YDK7HrCS",
            "data": {
                "actionCategory": {
                    "value": "offensive"
                },
                "actionType": {
                    "value": "action"
                },
                "actions": {
                    "value": 2
                },
                "description": {
                    "value": "<p>The galvo Strides, ending its movement sharing a space with another creature, and deals [[/r {3d6}[piercing]]]{3d6 piercing damage} plus [[/r {2d12}[electricity]]]{2d12 electricity damage} to the creature. The creature must attempt a <span data-pf2-check=\"reflex\" data-pf2-dc=\"28\" data-pf2-traits=\"damaging-effect\" data-pf2-label=\"Squirming Embrace DC\" data-pf2-show-dc=\"gm\">basic Reflex</span> save.</p>"
                },
                "requirements": {
                    "value": ""
                },
                "rules": [],
                "slug": null,
                "source": {
                    "value": ""
                },
                "traits": {
                    "custom": "",
                    "rarity": {
                        "value": "common"
                    },
                    "value": []
                },
                "trigger": {
                    "value": ""
                },
                "weapon": {
                    "value": ""
                }
            },
            "effects": [],
            "flags": {},
            "img": "systems/pf2e/icons/actions/TwoActions.webp",
            "name": "Squirming Embrace",
            "sort": 700000,
            "type": "action"
        },
        {
            "_id": "1Ld61yL8VIWBvakX",
            "data": {
                "actionCategory": {
                    "value": "offensive"
                },
                "actionType": {
                    "value": "action"
                },
                "actions": {
                    "value": 1
                },
                "description": {
                    "value": "<p>The galvo collapses into a shapeless swarm of eels. It drops all held, worn, and carried items. While discorporated, the galvo can't use attack actions, but it can move through areas small enough for its individual eels to fit without having to Squeeze. It can use Swarm Shape again to coalesce back into its normal form.</p>"
                },
                "requirements": {
                    "value": ""
                },
                "rules": [],
                "slug": null,
                "source": {
                    "value": ""
                },
                "traits": {
                    "custom": "",
                    "rarity": {
                        "value": "common"
                    },
                    "value": [
                        "concentrate"
                    ]
                },
                "trigger": {
                    "value": ""
                },
                "weapon": {
                    "value": ""
                }
            },
            "effects": [],
            "flags": {},
            "img": "systems/pf2e/icons/actions/OneAction.webp",
            "name": "Swarm Shape",
            "sort": 800000,
            "type": "action"
        },
        {
            "_id": "std4OtsgGtdphQri",
            "data": {
                "description": {
                    "value": ""
                },
                "item": {
                    "value": 0
                },
                "mod": {
                    "value": 19
                },
                "proficient": {
                    "value": 0
                },
                "rules": [],
                "slug": null,
                "source": {
                    "value": ""
                },
                "traits": {
                    "custom": "",
                    "rarity": {
                        "value": "common"
                    },
                    "value": []
                }
            },
            "effects": [],
            "flags": {},
            "img": "systems/pf2e/icons/default-icons/lore.svg",
            "name": "Acrobatics",
            "sort": 900000,
            "type": "lore"
        },
        {
            "_id": "07ekYQGwGVR26SHl",
            "data": {
                "description": {
                    "value": ""
                },
                "item": {
                    "value": 0
                },
                "mod": {
                    "value": 19
                },
                "proficient": {
                    "value": 0
                },
                "rules": [],
                "slug": null,
                "source": {
                    "value": ""
                },
                "traits": {
                    "custom": "",
                    "rarity": {
                        "value": "common"
                    },
                    "value": []
                }
            },
            "effects": [],
            "flags": {},
            "img": "systems/pf2e/icons/default-icons/lore.svg",
            "name": "Athletics",
            "sort": 1000000,
            "type": "lore"
        },
        {
            "_id": "fzrsuxRehP1Rbout",
            "data": {
                "description": {
                    "value": ""
                },
                "item": {
                    "value": 0
                },
                "mod": {
                    "value": 19
                },
                "proficient": {
                    "value": 0
                },
                "rules": [],
                "slug": null,
                "source": {
                    "value": ""
                },
                "traits": {
                    "custom": "",
                    "rarity": {
                        "value": "common"
                    },
                    "value": []
                }
            },
            "effects": [],
            "flags": {},
            "img": "systems/pf2e/icons/default-icons/lore.svg",
            "name": "Stealth",
            "sort": 1100000,
            "type": "lore"
        }
    ],
    "name": "Galvo",
    "token": {
        "disposition": -1,
        "height": 1,
        "img": "systems/pf2e/icons/default-icons/npc.svg",
        "name": "Galvo",
        "width": 1
    },
    "type": "npc"
}
