{
    "_id": "ZDGYrJ68aTzZ2EtT",
    "data": {
        "abilities": {
            "cha": {
                "mod": 4
            },
            "con": {
                "mod": 0
            },
            "dex": {
                "mod": 4
            },
            "int": {
                "mod": 0
            },
            "str": {
                "mod": -5
            },
            "wis": {
                "mod": 5
            }
        },
        "attributes": {
            "ac": {
                "details": "",
                "value": 21
            },
            "allSaves": {
                "value": null
            },
            "hp": {
                "details": "",
                "max": 45,
                "temp": 0,
                "value": 45
            },
            "initiative": {
                "ability": "perception"
            },
            "perception": {
                "value": 13
            },
            "shield": {
                "ac": 2,
                "brokenThreshold": 0,
                "hardness": 0,
                "max": 0,
                "value": 0
            },
            "speed": {
                "otherSpeeds": [
                    {
                        "exceptions": "",
                        "label": "Fly",
                        "type": "fly",
                        "value": "25"
                    }
                ],
                "value": "0"
            }
        },
        "details": {
            "alignment": {
                "value": "LN"
            },
            "blurb": "",
            "creatureType": "",
            "level": {
                "value": 4
            },
            "privateNotes": "",
            "publicNotes": "<p>The typical trajectory for souls passing to the afterlife is fairly straightforward, according to most theologians. When a mortal dies, their soul enters the River of Souls and eventually reaches the Boneyard, where it is judged by Pharasma. The judged soul moves onto its appropriate domain of final rest-Heaven, Hell, Abaddon, and so forth-where it becomes a petitioner.</p>\n<p>Complications arise, however, when a soul in queue for judgment prematurely departs from the River of Souls and is shunted into the Ethereal Plane. Whether as a result of nefarious interlopers like night hags, malignant planar magic, or even fate, these souls become dislodged from the natural order of life and death and linger in a sort of purgatory. Unlike petitioners, these ethereal phantoms retain memories of their life before death, and unlike spirits such as ghosts, phantoms aren't tinged with the foul influences of undeath-at least, not at first, though the threat of corruption hangs heavy over a phantom's existence. Some eventually succumb to that fate, while others eventually rejoin the River of Souls. Until then, these wandering souls are a kind unto themselves-one without a true home, agenda, or purpose.</p>\n<p>Many phantoms have no desire to remain in their strange state of purgatory, either because they seek to continue their journey through the River of Souls or because they fear the corruption of undeath. In order to complete the natural spiritual cycle and become judged so they can continue to the afterlife, a phantom must simply find a way back into the River of Souls. Such a quest is no easy feat, however-the hazy mists of the Ethereal Plane can befuddle even the most experienced traveler, and numerous predators prowl the realm in search of stray souls to bind or devour.</p>\n<hr />\n<p>Cavaliers and knights who died for their cause make for particularly strong-willed phantoms. Though their motives vary, these phantoms often seek to continue their lifelong missions even in their purgatorial states, and their strong forces of will make them formidable fighters in spite of their incorporeality. A phantom knight might strive to find living followers of their church or order, or seek out other mortals they knew in life as a way of staying grounded and avoiding the corruption of undeath.</p>",
            "source": {
                "value": "Pathfinder Bestiary 3"
            }
        },
        "resources": {},
        "saves": {
            "fortitude": {
                "saveDetail": "",
                "value": 8
            },
            "reflex": {
                "saveDetail": "",
                "value": 12
            },
            "will": {
                "saveDetail": "",
                "value": 13
            }
        },
        "traits": {
            "attitude": {
                "value": "hostile"
            },
            "ci": [],
            "di": {
                "custom": "",
                "value": [
                    "disease",
                    "paralyzed",
                    "poison",
                    "precision"
                ]
            },
            "dr": [
                {
                    "exceptions": "except force or ghost touch; double resistance vs. non-magical",
                    "label": "All",
                    "type": "all",
                    "value": "3"
                }
            ],
            "dv": [],
            "languages": {
                "custom": "",
                "selected": [],
                "value": [
                    "common"
                ]
            },
            "rarity": {
                "value": "uncommon"
            },
            "senses": {
                "value": "darkvision"
            },
            "size": {
                "value": "med"
            },
            "traits": {
                "custom": "",
                "value": [
                    "ethereal",
                    "incorporeal",
                    "phantom",
                    "spirit"
                ]
            }
        }
    },
    "effects": [],
    "flags": {},
    "img": "systems/pf2e/icons/default-icons/npc.svg",
    "items": [
        {
            "_id": "Jzdce7Z64aM5gu70",
            "data": {
                "attack": {
                    "value": ""
                },
                "attackEffects": {
                    "custom": "",
                    "value": []
                },
                "bonus": {
                    "value": 14
                },
                "damageRolls": {
                    "0": {
                        "damage": "1d8+7",
                        "damageType": "force"
                    }
                },
                "description": {
                    "value": ""
                },
                "rules": [],
                "slug": null,
                "source": {
                    "value": ""
                },
                "traits": {
                    "custom": "",
                    "rarity": {
                        "value": "common"
                    },
                    "value": [
                        "finesse",
                        "force",
                        "magical"
                    ]
                },
                "weaponType": {
                    "value": "melee"
                }
            },
            "effects": [],
            "flags": {},
            "img": "systems/pf2e/icons/default-icons/melee.svg",
            "name": "Phantom Sword",
            "sort": 100000,
            "type": "melee"
        },
        {
            "_id": "XuhLACe64duPSQuG",
            "data": {
                "attack": {
                    "value": ""
                },
                "attackEffects": {
                    "custom": "",
                    "value": []
                },
                "bonus": {
                    "value": 14
                },
                "damageRolls": {
                    "0": {
                        "damage": "1d8+5",
                        "damageType": "force"
                    }
                },
                "description": {
                    "value": ""
                },
                "rules": [],
                "slug": null,
                "source": {
                    "value": ""
                },
                "traits": {
                    "custom": "",
                    "rarity": {
                        "value": "common"
                    },
                    "value": [
                        "deadly-d10",
                        "force",
                        "magical",
                        "range-increment-120",
                        "volley-30"
                    ]
                },
                "weaponType": {
                    "value": "ranged"
                }
            },
            "effects": [],
            "flags": {},
            "img": "systems/pf2e/icons/default-icons/melee.svg",
            "name": "Phantom Bow",
            "sort": 200000,
            "type": "melee"
        },
        {
            "_id": "JScL1xh1oN0V3BSZ",
            "data": {
                "actionCategory": {
                    "value": "interaction"
                },
                "actionType": {
                    "value": "passive"
                },
                "actions": {
                    "value": null
                },
                "description": {
                    "value": "<p>@Localize[PF2E.NPC.Abilities.Glossary.Darkvision]</p>"
                },
                "requirements": {
                    "value": ""
                },
                "rules": [],
                "slug": "darkvision",
                "source": {
                    "value": ""
                },
                "traits": {
                    "custom": "",
                    "rarity": {
                        "value": "common"
                    },
                    "value": []
                },
                "trigger": {
                    "value": ""
                },
                "weapon": {
                    "value": ""
                }
            },
            "effects": [],
            "flags": {
                "core": {
                    "sourceId": "Compendium.pf2e.bestiary-ability-glossary-srd.qCCLZhnp2HhP3Ex6"
                }
            },
            "img": "systems/pf2e/icons/default-icons/action.svg",
            "name": "Darkvision",
            "sort": 300000,
            "type": "action"
        },
        {
            "_id": "1oCth6jpnhdrJCOk",
            "data": {
                "actionCategory": {
                    "value": "defensive"
                },
                "actionType": {
                    "value": "action"
                },
                "actions": {
                    "value": 2
                },
                "description": {
                    "value": "<p>The phantom walks the thin line between the Ethereal and Material Planes in order to exist on both planes simultaneously.</p>\n<p>They can shift back to solely the Ethereal Plane by using this ability again.</p>"
                },
                "requirements": {
                    "value": ""
                },
                "rules": [],
                "slug": null,
                "source": {
                    "value": ""
                },
                "traits": {
                    "custom": "",
                    "rarity": {
                        "value": "common"
                    },
                    "value": []
                },
                "trigger": {
                    "value": ""
                },
                "weapon": {
                    "value": ""
                }
            },
            "effects": [],
            "flags": {},
            "img": "systems/pf2e/icons/actions/TwoActions.webp",
            "name": "Walk the Ethereal Line",
            "sort": 400000,
            "type": "action"
        },
        {
            "_id": "AwRCPMRzo9dIymmM",
            "data": {
                "actionCategory": {
                    "value": "defensive"
                },
                "actionType": {
                    "value": "passive"
                },
                "actions": {
                    "value": null
                },
                "description": {
                    "value": "<p>Though phantoms aren't alive, neither are they undead, and they are uniquely vulnerable to the effects of death.</p>\n<p>A phantom whose Hit Points are reduced to 0 as a result of a death effect (such as from a spell like <em>@Compendium[pf2e.spells-srd.Finger of Death]{Finger of Death}</em>) is immediately whisked away to the River of Souls, where their soul resumes the usual path to the afterlife.</p>"
                },
                "requirements": {
                    "value": ""
                },
                "rules": [],
                "slug": null,
                "source": {
                    "value": ""
                },
                "traits": {
                    "custom": "",
                    "rarity": {
                        "value": "common"
                    },
                    "value": []
                },
                "trigger": {
                    "value": ""
                },
                "weapon": {
                    "value": ""
                }
            },
            "effects": [],
            "flags": {},
            "img": "systems/pf2e/icons/actions/Passive.webp",
            "name": "Susceptible to Death",
            "sort": 500000,
            "type": "action"
        },
        {
            "_id": "8WmPWIXXUs0n6cTP",
            "data": {
                "actionCategory": {
                    "value": "defensive"
                },
                "actionType": {
                    "value": "passive"
                },
                "actions": {
                    "value": null
                },
                "description": {
                    "value": ""
                },
                "requirements": {
                    "value": ""
                },
                "rules": [
                    {
                        "key": "FlatModifier",
                        "predicate": {
                            "any": [
                                "death"
                            ]
                        },
                        "selector": "saving-throw",
                        "type": "status",
                        "value": -1
                    }
                ],
                "slug": null,
                "source": {
                    "value": ""
                },
                "traits": {
                    "custom": "",
                    "rarity": {
                        "value": "common"
                    },
                    "value": []
                },
                "trigger": {
                    "value": ""
                },
                "weapon": {
                    "value": ""
                }
            },
            "effects": [],
            "flags": {},
            "img": "systems/pf2e/icons/default-icons/mystery-man.svg",
            "name": "-1 Status Penalty to Saves vs Death Effects",
            "sort": 600000,
            "type": "action"
        },
        {
            "_id": "smsVUx4YrOR3WatK",
            "data": {
                "description": {
                    "value": ""
                },
                "item": {
                    "value": 0
                },
                "mod": {
                    "value": 12
                },
                "proficient": {
                    "value": 0
                },
                "rules": [],
                "slug": null,
                "source": {
                    "value": ""
                },
                "traits": {
                    "custom": "",
                    "rarity": {
                        "value": "common"
                    },
                    "value": []
                }
            },
            "effects": [],
            "flags": {},
            "img": "systems/pf2e/icons/default-icons/lore.svg",
            "name": "Intimidation",
            "sort": 700000,
            "type": "lore"
        }
    ],
    "name": "Phantom Knight",
    "token": {
        "disposition": -1,
        "height": 1,
        "img": "systems/pf2e/icons/default-icons/npc.svg",
        "name": "Phantom Knight",
        "width": 1
    },
    "type": "npc"
}
