{
    "_id": "aiwlPSmNY9b6Psvd",
    "data": {
        "actionCategory": {
            "value": "offensive"
        },
        "actionType": {
            "value": "action"
        },
        "actions": {
            "value": 2
        },
        "description": {
            "value": "<p>The ghost laments its fate, forcing each living creature within 30 feet to attempt a <span data-pf2-check=\"will\" data-pf2-dc=\"\" data-pf2-traits=\"auditory,divine,emotion,enchantment,fear,mental\" data-pf2-label=\"Frightful Moan DC\" data-pf2-show-dc=\"gm\">Will</span> save.</p>\n<p data-visibility=\"gm\">On a failure, a creature becomes @Compendium[pf2e.conditionitems.Frightened]{Frightened 2} (or @Compendium[pf2e.conditionitems.Frightened]{Frightened 3} on a critical failure). On a success, a creature is temporarily immune to this ghost's frightful moan for 1 minute.</p>"
        },
        "requirements": {
            "value": "Pathfinder Bestiary"
        },
        "rules": [],
        "source": {
            "value": ""
        },
        "traits": {
            "custom": "",
            "rarity": {
                "value": "common"
            },
            "value": [
                "auditory",
                "divine",
                "emotion",
                "enchantment",
                "fear",
                "mental"
            ]
        },
        "trigger": {
            "value": ""
        },
        "weapon": {
            "value": ""
        }
    },
    "effects": [],
    "flags": {},
    "img": "systems/pf2e/icons/actions/TwoActions.webp",
    "name": "(Ghost) Frightful Moan",
    "type": "action"
}
