{
    "_id": "cYkEpJzpMu3mCrFc",
    "data": {
        "actionCategory": {
            "value": "interaction"
        },
        "actionType": {
            "value": "action"
        },
        "actions": {
            "value": 3
        },
        "description": {
            "value": "<p>The ghost causes all or part of its bound site to look, sound, feel, and smell like a different kind of place, and can populate it with simple illusions of people or animals.</p>\n<p>Typically, the ghost can recreate only a handful of images, usually different versions of its bound site as it appeared during the ghost's life. This can't disguise any creatures in the area, though it can cause minor, cosmetic changes (like causing a creature's clothing to appear nicer for a party or bloodstained for a battle).</p>\n<p>Any creature that touches the illusion or uses the Seek action to examine it can attempt to disbelieve it. Creatures can't leave the area of the illusion until they successfully disbelieve it.</p>"
        },
        "requirements": {
            "value": ""
        },
        "rules": [],
        "source": {
            "value": "Pathfinder #165: Eyes of Empty Death"
        },
        "traits": {
            "custom": "",
            "rarity": {
                "value": "common"
            },
            "value": [
                "auditory",
                "divine",
                "illusion",
                "mental",
                "olfactory",
                "visual"
            ]
        },
        "trigger": {
            "value": ""
        }
    },
    "effects": [],
    "flags": {},
    "img": "systems/pf2e/icons/actions/ThreeActions.webp",
    "name": "(Ghost) Phantasmagoria",
    "type": "action"
}
