{
    "_id": "IdpkEJycZgrkvdSn",
    "data": {
        "attributes": {
            "ac": {
                "value": 0
            },
            "hardness": 0,
            "hasHealth": true,
            "hp": {
                "details": "",
                "max": 10,
                "temp": 0,
                "tempmax": 0,
                "value": 10
            },
            "stealth": {
                "details": "",
                "value": 10
            }
        },
        "creatureType": "",
        "details": {
            "description": "The echo of diabolic bells reverberates with a bone-shaking clamor.",
            "disable": "Religion DC 27 (expert) to break the curse with recitations against the power of Hell (2 actions), or Performance DC 22 (expert) to Perform an opposing composition.",
            "isComplex": true,
            "level": {
                "value": 6
            },
            "reset": "The bells cease ringing if there are no living creatures within 30 feet.",
            "routine": "(1 action)The bells toll, dealing 4d6 sonic damage to each living creature within 30 feet (DC 24 basic Fortitude save)."
        },
        "saves": {
            "fortitude": {
                "saveDetail": "",
                "value": 0
            },
            "reflex": {
                "saveDetail": "",
                "value": 0
            },
            "will": {
                "saveDetail": "",
                "value": 0
            }
        },
        "source": {
            "value": ""
        },
        "statusEffects": [],
        "traits": {
            "ci": [],
            "di": {
                "custom": "",
                "selected": {},
                "value": []
            },
            "dr": [],
            "dv": [],
            "rarity": {
                "value": "common"
            },
            "size": {
                "value": "med"
            },
            "traits": {
                "custom": "Rare",
                "value": [
                    "auditory",
                    "haunt",
                    "sonic"
                ]
            }
        }
    },
    "effects": [],
    "flags": {},
    "img": "systems/pf2e/icons/default-icons/hazard.svg",
    "items": [
        {
            "_id": "nPeM50gZBykCKDxe",
            "data": {
                "actionCategory": {
                    "value": ""
                },
                "actionType": {
                    "value": "reaction"
                },
                "actions": {
                    "value": null
                },
                "description": {
                    "value": "<p data-visibility=\"gm\"><strong>Trigger</strong>: A living creature approaches within 30 feet.</p>\n<p><strong>Effect:</strong> Sounds of creaking metal fill the area as the phantom bells begin to swing and the haunt rolls initiative.</p>"
                },
                "requirements": {
                    "value": ""
                },
                "rules": [],
                "slug": null,
                "source": {
                    "value": ""
                },
                "traits": {
                    "custom": "",
                    "rarity": {
                        "value": "common"
                    },
                    "selected": {
                        "auditory": "Auditory",
                        "sonic": "Sonic"
                    },
                    "value": [
                        "auditory",
                        "sonic"
                    ]
                },
                "trigger": {
                    "value": ""
                },
                "weapon": {
                    "value": ""
                }
            },
            "effects": [],
            "flags": {},
            "img": "systems/pf2e/icons/actions/Reaction.webp",
            "name": "Distant Ringing",
            "sort": 100000,
            "type": "action"
        },
        {
            "_id": "pfyScFXaVG8zhy7x",
            "data": {
                "attack": {
                    "value": ""
                },
                "attackEffects": {
                    "value": []
                },
                "bonus": {
                    "value": 0
                },
                "damageRolls": {
                    "wqcdqj132mdfp137z4ynbc": {
                        "damage": "4d6",
                        "damageType": "sonic"
                    }
                },
                "description": {
                    "value": "<p><strong>Range</strong>: 30 feet radius.</p>\n<p><strong>Targets</strong>: All creatures.</p>\n<p>DC 24 basic Fortitude save</p>"
                },
                "rules": [],
                "slug": null,
                "source": {
                    "value": ""
                },
                "traits": {
                    "custom": "",
                    "rarity": {
                        "value": "common"
                    },
                    "selected": {},
                    "value": []
                },
                "weaponType": {
                    "value": "melee"
                }
            },
            "effects": [],
            "flags": {},
            "img": "systems/pf2e/icons/default-icons/melee.svg",
            "name": "Bell Toll (Automatically Hits)",
            "sort": 200000,
            "type": "melee"
        }
    ],
    "name": "Phantom Bells",
    "token": {
        "disposition": 0,
        "height": 1,
        "img": "systems/pf2e/icons/default-icons/hazard.svg",
        "name": "Phantom Bells",
        "width": 1
    },
    "type": "hazard"
}
