{
    "_id": "HbgvZUYFJd2VfwmQ",
    "data": {
        "attributes": {
            "ac": {
                "value": 30
            },
            "hardness": 10,
            "hasHealth": true,
            "hp": {
                "details": "",
                "max": 40,
                "temp": 0,
                "tempmax": 0,
                "value": 40
            },
            "stealth": {
                "details": "Expert",
                "value": 22
            }
        },
        "creatureType": "",
        "customModifiers": {},
        "details": {
            "description": "The statue of the willow tree animates, its branches lashing out to try to grab anyone in area B2.",
            "disable": "Athletics or Thievery DC 25 (trained) to force or lever open a single branch, disabling that branch and freeing any creature trapped within. \r\nThievery DC 29 (expert) to disrupt the tree's magical animation, shut it down, and free all trapped creatures. Placing a dreamstone in the tree's trunk takes 2 Interact actions and causes the trap to shut down, freeing all trapped creatures. Placing the cursed dreamstone from area B4 in the trunk instead increases the tree's actions per turn to 4 and gives it a +2 item bonus to all saving throws and attack rolls.",
            "isComplex": true,
            "level": {
                "value": 10
            },
            "reset": "The trap deactivates and resets if it has no creatures grabbed and no creatures in the room to attack. If an uncursed dreamstone is placed in its trunk, the statue doesn't reactivate.",
            "routine": "(3 actions) The statue uses each action to attempt a branch Strike against a random creature in the room that it hasn't grabbed. If there are no creatures for it to attack and it has at least one creature grabbed, it instead Constricts. The trap can have up to six creatures grabbed."
        },
        "saves": {
            "fortitude": {
                "saveDetail": "",
                "value": 22
            },
            "reflex": {
                "saveDetail": "",
                "value": 14
            },
            "will": {
                "saveDetail": "",
                "value": 0
            }
        },
        "source": {
            "value": ""
        },
        "statusEffects": [],
        "traits": {
            "ci": [],
            "di": {
                "custom": "",
                "selected": {},
                "value": [
                    "critical-hits",
                    "object-immunities",
                    "precision"
                ]
            },
            "dr": [],
            "dv": [],
            "rarity": {
                "value": "common"
            },
            "size": {
                "value": "med"
            },
            "traits": {
                "custom": "Rare",
                "value": [
                    "magical"
                ]
            }
        }
    },
    "effects": [],
    "flags": {},
    "img": "systems/pf2e/icons/default-icons/hazard.svg",
    "items": [
        {
            "_id": "7OO4EaZqoN2OpQoI",
            "data": {
                "actionCategory": {
                    "value": ""
                },
                "actionType": {
                    "value": "reaction"
                },
                "actions": {
                    "value": null
                },
                "description": {
                    "value": "<p>The tree of dreadful dreams can attempt up to six Attacks of Opportunity each round.</p>"
                },
                "requirements": {
                    "value": ""
                },
                "rules": [],
                "slug": null,
                "source": {
                    "value": ""
                },
                "traits": {
                    "custom": "",
                    "rarity": {
                        "value": "common"
                    },
                    "selected": {},
                    "value": []
                },
                "trigger": {
                    "value": ""
                },
                "weapon": {
                    "value": ""
                }
            },
            "effects": [],
            "flags": {},
            "img": "systems/pf2e/icons/actions/Reaction.webp",
            "name": "Attack of Opportunity",
            "sort": 100000,
            "type": "action"
        },
        {
            "_id": "agvYAJn23dKfPmcI",
            "data": {
                "attack": {
                    "value": ""
                },
                "attackEffects": {
                    "custom": "",
                    "value": [
                        "grab",
                        "independent-limbs"
                    ]
                },
                "bonus": {
                    "value": 26
                },
                "damageRolls": {
                    "2a5v83i5qm2ojiv2la4u8": {
                        "damage": "2d10+12",
                        "damageType": "bludgeoning"
                    }
                },
                "description": {
                    "value": ""
                },
                "rules": [],
                "slug": null,
                "source": {
                    "value": ""
                },
                "traits": {
                    "custom": "",
                    "rarity": {
                        "value": "common"
                    },
                    "selected": {
                        "reach-20": "Reach 20 ft"
                    },
                    "value": [
                        "reach-20"
                    ]
                },
                "weaponType": {
                    "value": "melee"
                }
            },
            "effects": [],
            "flags": {},
            "img": "systems/pf2e/icons/default-icons/melee.svg",
            "name": "Branch",
            "sort": 200000,
            "type": "melee"
        },
        {
            "_id": "A1pyv8ujpnoW66v2",
            "data": {
                "actionCategory": {
                    "value": ""
                },
                "actionType": {
                    "value": "passive"
                },
                "actions": {
                    "value": null
                },
                "description": {
                    "value": "<p>The branch @Compendium[pf2e.actionspf2e.Strike]{Strike} does not suffer multiple attack penalties.</p>"
                },
                "requirements": {
                    "value": ""
                },
                "rules": [],
                "slug": null,
                "source": {
                    "value": ""
                },
                "traits": {
                    "custom": "",
                    "rarity": {
                        "value": "common"
                    },
                    "selected": {},
                    "value": []
                },
                "trigger": {
                    "value": ""
                },
                "weapon": {
                    "value": ""
                }
            },
            "effects": [],
            "flags": {},
            "img": "systems/pf2e/icons/default-icons/action.svg",
            "name": "Independent Limbs",
            "sort": 300000,
            "type": "action"
        },
        {
            "_id": "cP2We7SRbI7YuRzt",
            "data": {
                "actionCategory": {
                    "value": "offensive"
                },
                "actionType": {
                    "value": "action"
                },
                "actions": {
                    "value": null
                },
                "description": {
                    "value": "<p>[[/r {1d10+12}[bludgeoning]]]{1d10+12 bludgeoning damage}.</p>\n<p><span data-pf2-check=\"fortitude\" data-pf2-traits=\"damaging-effect\" data-pf2-label=\"Constrict DC\" data-pf2-dc=\"27\" data-pf2-show-dc=\"gm\">basic Fortitude</span></p>\n<hr />\n<p>@Localize[PF2E.NPC.Abilities.Glossary.Constrict]</p>"
                },
                "requirements": {
                    "value": ""
                },
                "rules": [],
                "slug": "constrict",
                "source": {
                    "value": ""
                },
                "traits": {
                    "custom": "",
                    "rarity": {
                        "value": "common"
                    },
                    "selected": {},
                    "value": []
                },
                "trigger": {
                    "value": ""
                },
                "weapon": {
                    "value": ""
                }
            },
            "effects": [],
            "flags": {
                "core": {
                    "sourceId": "Compendium.pf2e.bestiary-ability-glossary-srd.g26YiEIfSHCpLocV"
                }
            },
            "img": "systems/pf2e/icons/actions/OneAction.webp",
            "name": "Constrict",
            "sort": 400000,
            "type": "action"
        },
        {
            "_id": "M0hdta5U4NIGRZAD",
            "data": {
                "actionCategory": {
                    "value": ""
                },
                "actionType": {
                    "value": "passive"
                },
                "actions": {
                    "value": null
                },
                "description": {
                    "value": "<p>A creature that begins its turn grabbed by the trap experiences vivid, warped visions of true events and must succeed at a <span data-pf2-check=\"will\" data-pf2-dc=\"31\" data-pf2-traits=\"damaging-effect\" data-pf2-label=\"Terrifying Visions DC\" data-pf2-show-dc=\"gm\">Will</span> save or take [[/r {4d8}[mental]]]{4d8 mental damage}. On a critical failure, the creature also becomes @Compendium[pf2e.conditionitems.Doomed]{Doomed}1. A creature that succeeds at its save is temporarily immune for 24 hours.</p>"
                },
                "requirements": {
                    "value": ""
                },
                "rules": [],
                "slug": null,
                "source": {
                    "value": ""
                },
                "traits": {
                    "custom": "",
                    "rarity": {
                        "value": "common"
                    },
                    "selected": {},
                    "value": []
                },
                "trigger": {
                    "value": ""
                },
                "weapon": {
                    "value": ""
                }
            },
            "effects": [],
            "flags": {},
            "img": "systems/pf2e/icons/default-icons/action.svg",
            "name": "Terrifying Visions",
            "sort": 500000,
            "type": "action"
        }
    ],
    "name": "Tree of Dreadful Dreams",
    "token": {
        "disposition": 0,
        "height": 1,
        "img": "systems/pf2e/icons/default-icons/hazard.svg",
        "name": "Tree of Dreadful Dreams",
        "width": 1
    },
    "type": "hazard"
}
