{
    "_id": "3vz4m5O9oyhVGe7t",
    "content": "<table class=\"pf2-table\">\n<thead>\n<tr>\n<th>\n<h3><strong>Name</strong></h3>\n</th>\n<th>\n<h3><strong>Crit Effect</strong></h3>\n</th>\n<th>\n<h3><strong>Type</strong></h3>\n</th>\n</tr>\n</thead>\n<tbody>\n<tr>\n<td>I told you it's Sharp!</td>\n<td>You take 1d6 persistent bleed damage.</td>\n<td>\n<h3>Melee</h3>\n</td>\n</tr>\n<tr>\n<td>Klutz</td>\n<td>You drop the weapon you used.</td>\n<td>\n<h3>Ranged</h3>\n</td>\n</tr>\n<tr>\n<td>Stop hitting Yourself</td>\n<td>You hit yourself instead of the target.</td>\n<td>\n<h3>Unarmed</h3>\n</td>\n</tr>\n<tr>\n<td>Not me, you Fool!</td>\n<td>You hit the ally nearest to the target.</td>\n<td>\n<h3>Spell</h3>\n</td>\n</tr>\n</tbody>\n</table>\n<h3 style=\"text-align: left;\"> </h3>",
    "flags": {},
    "name": "Critical Fumble Deck #26",
    "permission": {
        "default": 0
    }
}
