{
    "_id": "wga13mR4vo73tbTY",
    "content": "<table class=\"pf2-table\" style=\"width:93.1133%;height:215px\">\n<thead>\n<tr style=\"height:34px\">\n<th style=\"width:19.5686%;height:34px\">\n<h3><strong>Name</strong></h3>\n</th>\n<th style=\"width:62.3893%;height:34px\">\n<h3><strong>Crit Effect</strong></h3>\n</th>\n<th style=\"width:17.888%;height:34px\">\n<h3><strong>Type</strong></h3>\n</th>\n</tr>\n</thead>\n<tbody>\n<tr style=\"height:49px\">\n<td style=\"width:19.5686%;height:49px\">Off Balance</td>\n<td style=\"width:62.3893%;text-align:justify;height:49px\">You take a -2 circumstance penalty to attack rolls until the end of your next turn.</td>\n<td style=\"width:17.888%;height:49px\">\n<h3>Melee</h3>\n</td>\n</tr>\n<tr style=\"height:34px\">\n<td style=\"width:19.5686%;height:34px\">Friendly Fire</td>\n<td style=\"width:62.3893%;text-align:justify;height:34px\">You the ally nearest to the target.</td>\n<td style=\"width:17.888%;height:34px\">\n<h3>Ranged</h3>\n</td>\n</tr>\n<tr style=\"height:49px\">\n<td style=\"width:19.5686%;height:49px\">Something's Broken</td>\n<td style=\"width:62.3893%;text-align:justify;height:49px\">You take 1d4 bludgeoning damage, and you can't use this attack until healed.</td>\n<td style=\"width:17.888%;height:49px\">\n<h3>Unarmed</h3>\n</td>\n</tr>\n<tr style=\"height:49px\">\n<td style=\"width:19.5686%;height:49px\">Power Drain</td>\n<td style=\"width:62.3893%;text-align:justify;height:49px\">You one prepared spell or spell slot (determined randomly by the GM).</td>\n<td style=\"width:17.888%;height:49px\">\n<h3>Spell</h3>\n</td>\n</tr>\n</tbody>\n</table>",
    "flags": {},
    "name": "Critical Fumble Deck #10",
    "permission": {
        "default": 0
    }
}
