{
    "_id": "bG91dbtbgOnw7Ofx",
    "data": {
        "actionCategory": {
            "value": "interaction"
        },
        "actionType": {
            "value": "action"
        },
        "actions": {
            "value": 1
        },
        "description": {
            "value": "<p><strong>Requirements</strong> You are adjacent to a point of entry on the vehicle you are attempting to board.</p>\n<p>You board a vehicle through an open top, a door, a portal, or a hatch; if you're already on board, you can instead use this action to disembark into an empty space adjacent to the vehicle's point of entry. Using this action while the vehicle is in motion is challenging, requiring a successful Acrobatics or Athletics check with a DC equal to the vehicle's AC.</p>"
        },
        "requirements": {
            "value": ""
        },
        "rules": [],
        "source": {
            "value": "Pathfinder Gamemastery Guide"
        },
        "traits": {
            "custom": "",
            "rarity": {
                "value": "common"
            },
            "value": [
                "move"
            ]
        },
        "trigger": {
            "value": ""
        },
        "weapon": {
            "value": ""
        }
    },
    "effects": [],
    "flags": {},
    "img": "systems/pf2e/icons/actions/OneAction.webp",
    "name": "Board",
    "type": "action"
}
