{
    "_id": "8Z1UkLEWkFWIjOF8",
    "data": {
        "description": {
            "value": "<p>Your homunculus familiar has a reservoir for poison, allowing it to apply an injury poison to an adjacent ally's exposed weapon with a single Interact action. You must supply the poison and instill it into this reservoir using two consecutive Interact actions. You must have a homunculus familiar to select this ability.</p>"
        },
        "duration": {
            "expiry": "turn-start",
            "sustained": false,
            "unit": "unlimited",
            "value": -1
        },
        "level": {
            "value": 1
        },
        "rules": [],
        "source": {
            "value": ""
        },
        "start": {
            "initiative": null,
            "value": 0
        },
        "target": null,
        "tokenIcon": {
            "show": false
        },
        "traits": {
            "custom": "",
            "rarity": {
                "value": "common"
            },
            "value": []
        }
    },
    "effects": [],
    "flags": {},
    "img": "systems/pf2e/icons/actions/Passive.webp",
    "name": "Poison Reservoir",
    "type": "effect"
}
