{
    "_id": "8wOAwLMgB1HFLo9n",
    "content": "<h1>Winlas (The Elder of Divinity) [LG]</h1><p><strong>Edicts</strong> Serve leaders of ceremonies, craft ceremonial arms and armor, lead a congregation</p><p><strong>Anathema</strong> Deride sacred ceremonies, carelessly or lazily perform rituals, destroy ceremonial objects</p><p><strong>Follower Alignments</strong> LG, NG, LN</span></p><h2>Devotee Benefits</h2><div><div><strong>Divine Ability</strong> Intelligence or Wisdom</div><div><strong>Divine Font</strong> heal</div><div><strong>Divine Skill</strong> Occultism</div><div><strong>Favored Weapon</strong> mace</div><div><strong>Domains</strong> glyph, knowledge, protection, vigil</div><div><strong>Cleric Spells</strong> 1st: share lore, 2nd: comprehend language, 4th: vei<strong>l</strong></div></div>",
    "flags": {},
    "name": "Winlas",
    "permission": {
        "default": 0
    }
}
