{
    "_id": "ZfN7jkK6boU1FuiS",
    "content": "<h1>Zon-Kuthon (Midnight Lord) [LE]</span></h1><p>The Midnight Lord embodies and glorifies pain, shadows, and mutilation, and he is one of the most twisted and malevolent gods on the face of Golarion. Once known as Dou-Bral, he crafted the immense Star Towers that still help keep Rovagug pinned in his prison at Golarion's heart, lending his own skill and ability to the great deific alliance to bind that evil entity. Yet a divine argument between him and his sister Shelyn resulted in the god departing for parts unknown. Zon-Kuthon traveled beyond the edges of the multiverse and stared into the face of the incomprehensible things that dwell there. No one knows what he found in that place, but he returned-changed, but claiming to be strengthened by what he had endured. Likewise, the nation of Nidal on Golarion, which is bound to him, is a nation of survivors, founded by those few strong enough to do what they must so their people could survive the terrible aftermath of Earthfall and the Age of Darkness that followed.</p><p><strong>Edicts</strong> bring pain to the world, mutilate your body</p><p><strong>Anathema</strong> create permanent or long-lasting sources of light, provide comfort to those who suffer</p><p><strong>Areas of Concern</strong> darkness, envy, loss, and pain</p><p><strong>Follower Alignments</strong> LN, LE, NE</span></p><p></span></p><h2>Devotee Benefits</h2><div><div><strong>Divine Ability</strong> Constitution or Wisdom</div><div><strong>Divine Font</strong> harm</div><div><strong>Divine Skill</strong> Intimidation</div><div><strong>Favored Weapon</strong> spiked chain</div><div><strong>Domains</strong> ambition, darkness, destruction, pain</div><div><strong>Alternate Domains</strong> void</div><div><strong>Cleric Spells</strong> 1st: phantom pain, 3rd: wall of thorns, 5th: shadow walk</div></div><h2>Divine Intercession</h2><p>Zon-Kuthon rarely intervenes directly in mortal affairs, but when he does take a personal interest in a creature, the effect is as terrible as the god himself.</p><p><strong>Minor Boon</strong>: The Midnight Lord turns your blood and pain into chains of midnight darkness to destroy your foes. Once, for 1 minute, whenever you take slashing, piercing, or bleed damage, chains rip forth from your body, affecting creatures in a line from your position in the direction of the attack (or in the direction of your choice for bleed damage or if you deal the damage yourself) with the effect of a grim tendrils spell whose level is equal to half your level rounded up, and whose DC is your highest spell DC (or 10 + your level + your Wisdom modifier if you have no spell DC).</p><p><strong>Moderate Boon</strong>: Each morning, during your daily preparations, scars gather into words on your flesh. The scars function as a scroll of a divine spell of Zon- Kuthon's choosing. After you use the scroll or receive magical healing, the boon fades for the day, though some or all of the scars might remain as a reminder.</p><p><strong>Major Boon</strong>: Shadows are deeper around you. Darkvision and greater darkvision cannot penetrate darkness within 60 feet of you, but you can see through it normally.</p><p><strong>Minor Curse</strong>: You are surrounded by spectral chains that cause you to always be encumbered and that have the same effects as armor with the noisy trait.</p><p><strong>Moderate Curse</strong>: You share the pain of others, and even minor wounds bring you incredible pain. Whenever you see (or otherwise sense) a creature take damage, you take 1d6 mental damage. Whenever you take damage any other way than from the first part of this curse, you take 1d6 mental damage from increased pain and are sickened 1. Mental damage from this curse ignores any resistance you have to mental damage.</p><p><strong>Major Curse</strong>: Zon-Kuthon steals away your joy, leaving you with only pain. You lose that which you cherish the most forever, and lose the ability to feel joy. You can't gain benefits from emotion effects based on positive emotions. If Zon-Kuthon feels you are ready to renounce, destroy, mutilate, or torture that which you once cherished most, he might return it to you to allow you to do so.</span></p>",
    "flags": {},
    "name": "Zon-Kuthon",
    "permission": {
        "default": 0
    }
}
