{
    "_id": "MRHDhBQvgJhDZ1zq",
    "content": "<p><strong>Deities </strong>@Compendium[pf2e.deities.Abadar]{Abadar}, @Compendium[pf2e.deities.Cayden Cailean]{Cayden Cailean}, @Compendium[pf2e.deities.Chohar]{Chohar}, @Compendium[pf2e.deities.Dispater]{Dispater}, @Compendium[pf2e.deities.Findeladlara]{Findeladlara}, @Compendium[pf2e.deities.Folgrit]{Folgrit}, @Compendium[pf2e.deities.Kazutal]{Kazutal}, @Compendium[pf2e.deities.Luhar]{Luhar}, @Compendium[pf2e.deities.Matravash]{Matravash}, @Compendium[pf2e.deities.Tlehar]{Tlehar}, @Compendium[pf2e.deities.Zohls]{Zohls}</p><p><strong>Domain Spell</strong> @Compendium[pf2e.spells-srd.Face in the Crowd]{Face in the Crowd}; <strong>Advanced Domain Spell</strong> @Compendium[pf2e.spells-srd.Pulse of the City]{Pulse of the City}</p><p><span id=\"ctl00_MainContent_DetailedOutput\">You have powers over urban environments and denizens.</span></p><p></p>",
    "flags": {},
    "name": "Cities Domain",
    "permission": {
        "default": 0
    }
}
