{
    "_id": "zec5N7EnDJANGHmy",
    "content": "<p><strong>Deities </strong>@Compendium[pf2e.deities.Hshurha]{Hshurha}, @Compendium[pf2e.deities.Nurgal]{Nurgal}, @Compendium[pf2e.deities.Trelmarixian]{Trelmarixian}, @Compendium[pf2e.deities.Ymeri]{Ymeri}</p><p><strong>Domain Spell</strong> @Compendium[pf2e.spells-srd.Parch]{Parch}; <strong>Advanced Domain Spell</strong> @Compendium[pf2e.spells-srd.Dust Storm]{Dust Storm}</p><p></span><span id=\"ctl00_MainContent_DetailedOutput\">You have the power to dry and crumble what opposes you.</p>",
    "flags": {},
    "name": "Dust Domain",
    "permission": {
        "default": 0
    }
}
