{
    "_id": "rIZ7OoG8c4Cct42M",
    "content": "<p><strong>Deities</strong> @Compendium[pf2e.deities.Anubis]{Anubis}, @Compendium[pf2e.deities.Barzahk]{Barzahk}, @Compendium[pf2e.deities.Chohar]{Chohar}, @Compendium[pf2e.deities.Dammerich]{Dammerich}, @Compendium[pf2e.deities.Dranngvit]{Dranngvit}, @Compendium[pf2e.deities.Irori]{Irori}, @Compendium[pf2e.deities.Kabriri]{Kabriri}, @Compendium[pf2e.deities.Pharasma]{Pharasma}, @Compendium[pf2e.deities.Ragadahn]{Ragadahn}, @Compendium[pf2e.deities.Shizuru]{Shizuru}, @Compendium[pf2e.deities.The Lost Prince]{The Lost Prince}, @Compendium[pf2e.deities.Tlehar]{Tlehar}, @Compendium[pf2e.deities.Winlas]{Winlas}</p><p><strong>Domain Spell</strong> @Compendium[pf2e.spells-srd.Object Memory]{Object Memory}; <strong>Advanced Domain Spell</strong> @Compendium[pf2e.spells-srd.Remember the Lost]{Remember the Lost}</p><p><span id=\"ctl00_MainContent_DetailedOutput\">You watch over those long passed and guard their secrets.</span></p><p></p>",
    "flags": {},
    "name": "Vigil Domain",
    "permission": {
        "default": 0
    }
}
