{
    "_id": "HpZ4NQIqBRcFihyE",
    "content": "<p><strong>Deities</strong> @Compendium[pf2e.deities.Abadar]{Abadar}, @Compendium[pf2e.deities.Besmara]{Besmara}, @Compendium[pf2e.deities.Dwarven Pantheon]{Dwarven Pantheon}, @Compendium[pf2e.deities.Erastil]{Erastil}, @Compendium[pf2e.deities.Falayna]{Falayna}, @Compendium[pf2e.deities.Hanspur]{Hanspur}, @Compendium[pf2e.deities.Hastur]{Hastur}, @Compendium[pf2e.deities.Kofusachi]{Kofusachi}, @Compendium[pf2e.deities.Mammon]{Mammon}, @Compendium[pf2e.deities.Nivi Rhombodazzle]{Nivi Rhombodazzle}, @Compendium[pf2e.deities.Norgorber]{Norgorber}, @Compendium[pf2e.deities.Raumya]{Raumya}, @Compendium[pf2e.deities.Sairazul]{Sairazul}, @Compendium[pf2e.deities.Thamir]{Thamir}</p><p><strong>Domain Spell</strong> @Compendium[pf2e.spells-srd.Appearance of Wealth]{Appearance of Wealth}; <strong>Advanced Domain Spell</strong> @Compendium[pf2e.spells-srd.Precious Metals]{Precious Metals}</p><p><span id=\"ctl00_MainContent_DetailedOutput\">You hold power over wealth, trade, and treasure.</span></p><p></p>",
    "flags": {},
    "name": "Wealth Domain",
    "permission": {
        "default": 0
    }
}
