{
    "_id": "i5LtFOpsUR5S74pC",
    "data": {
        "actionCategory": {
            "value": ""
        },
        "actionType": {
            "value": "passive"
        },
        "actions": {
            "value": null
        },
        "description": {
            "value": "<p>You gain the sneak attack class feature. You don't increase the number of dice as you gain levels.</p>"
        },
        "featType": {
            "value": "archetype"
        },
        "level": {
            "value": 6
        },
        "location": "",
        "prerequisites": {
            "value": [
                {
                    "value": "Butterfly Blade Dedication"
                }
            ]
        },
        "rules": [
            {
                "category": "precision",
                "diceNumber": 1,
                "dieSize": "d6",
                "key": "DamageDice",
                "predicate": {
                    "all": [
                        "target:flatFooted"
                    ],
                    "any": [
                        "finesse",
                        "agile",
                        "ranged"
                    ]
                },
                "selector": "damage"
            }
        ],
        "source": {
            "value": "Pathfinder #166: Despair on Danger Island"
        },
        "traits": {
            "custom": "",
            "rarity": {
                "value": "uncommon"
            },
            "value": [
                "archetype"
            ]
        }
    },
    "effects": [],
    "flags": {},
    "img": "systems/pf2e/icons/default-icons/feats.webp",
    "name": "Butterfly's Sting",
    "type": "feat"
}
