{
    "_id": "Iqv8qj7ym63YjexN",
    "data": {
        "actionCategory": {
            "value": ""
        },
        "actionType": {
            "value": "action"
        },
        "actions": {
            "value": 1
        },
        "description": {
            "value": "<p>You have a habit of always being in the way when other creatures attempt to move. Attempt an Acrobatics check against an adjacent creature's Reflex DC.</p>\n<hr />\n<p><strong>Critical Success</strong> The target creature gains a –2 circumstance penalty to Reflex saves and is @Compendium[pf2e.conditionitems.Flat-Footed]{Flat-Footed} until the start of your next turn.</p>\n<p><strong>Success</strong> The target creature gains a –2 circumstance penalty to Reflex saves until the start of your next turn.</p>"
        },
        "featType": {
            "value": "ancestry"
        },
        "level": {
            "value": 1
        },
        "location": "",
        "prerequisites": {
            "value": []
        },
        "rules": [],
        "source": {
            "value": "Pathfinder Lost Omens: Ancestry Guide"
        },
        "traits": {
            "custom": "",
            "rarity": {
                "value": "common"
            },
            "value": [
                "catfolk"
            ]
        }
    },
    "effects": [],
    "flags": {},
    "img": "systems/pf2e/icons/features/feats/feats.webp",
    "name": "Catfolk Dance",
    "type": "feat"
}
