{
    "_id": "ya9YlhUA4WspUlHB",
    "data": {
        "actionCategory": {
            "value": ""
        },
        "actionType": {
            "value": "passive"
        },
        "actions": {
            "value": null
        },
        "description": {
            "value": "<p>Your @Compendium[pf2e.equipment-srd.Clan Dagger]{Clan Dagger}can protect your allies as easily as yourself. When you use an @Compendium[pf2e.actionspf2e.Interact]{Interact} action to gain a circumstance bonus to AC from your clan dagger's parry trait, you can grant the circumstance bonus to an adjacent ally instead of gaining it yourself. You can use multiple Interact actions to protect multiple allies, or to protect yourself and an ally. The ally benefits from the bonus to AC only when they are adjacent to you.</p>"
        },
        "featType": {
            "value": "ancestry"
        },
        "level": {
            "value": 5
        },
        "location": "",
        "prerequisites": {
            "value": []
        },
        "rules": [],
        "source": {
            "value": "Pathfinder Lost Omens: Character Guide"
        },
        "traits": {
            "custom": "",
            "rarity": {
                "value": "common"
            },
            "value": [
                "dwarf"
            ]
        }
    },
    "effects": [],
    "flags": {},
    "img": "systems/pf2e/icons/features/feats/feats.webp",
    "name": "Clan Protector",
    "type": "feat"
}
