{
    "_id": "CN7tu5H6wTe9ENmO",
    "data": {
        "actionCategory": {
            "value": ""
        },
        "actionType": {
            "value": "passive"
        },
        "actions": {
            "value": null
        },
        "description": {
            "value": "<p>Odd interactions in your bloodline provide you with unexpected spells. You can have one spell in your spell repertoire from a tradition other than the one that matches your bloodline. You cast that spell as a spell from your bloodline's tradition. You can swap which spell you add and from which tradition as you could any other sorcerer spell, but you can't have more than one spell from another tradition in your spell repertoire at the same time using this feat.</p>"
        },
        "featType": {
            "value": "class"
        },
        "level": {
            "value": 8
        },
        "prerequisites": {
            "value": []
        },
        "rules": [],
        "source": {
            "value": "Pathfinder Core Rulebook"
        },
        "traits": {
            "custom": "",
            "rarity": {
                "value": "common"
            },
            "value": [
                "sorcerer"
            ]
        }
    },
    "effects": [],
    "flags": {},
    "img": "systems/pf2e/icons/features/feats/feats.webp",
    "name": "Crossblooded Evolution",
    "type": "feat"
}
