{
    "_id": "1F4FD5OdDCEyiEvk",
    "data": {
        "actionCategory": {
            "value": ""
        },
        "actionType": {
            "value": "passive"
        },
        "actions": {
            "value": null
        },
        "description": {
            "value": "<p>To keep the peace, you disrupt those who seek to break it. You can cast <em>@Compendium[pf2e.spells-srd.Deafness]{Deafness}</em> and 4th-level <em>@Compendium[pf2e.spells-srd.Silence]{Silence}</em> once per day each as innate spells. The tradition of these spells is the one you chose for the Nantambu Chime-Ringer Dedication feat.</p>"
        },
        "featType": {
            "value": "archetype"
        },
        "level": {
            "value": 10
        },
        "location": "",
        "prerequisites": {
            "value": [
                {
                    "value": "Nantambu Chime-Ringer Dedication"
                }
            ]
        },
        "rules": [],
        "source": {
            "value": "Pathfinder #170: Spoken on the Song Wind"
        },
        "traits": {
            "custom": "",
            "rarity": {
                "value": "common"
            },
            "value": [
                "archetype"
            ]
        }
    },
    "effects": [],
    "flags": {},
    "img": "systems/pf2e/icons/default-icons/feat.svg",
    "name": "Deny the Songs of War",
    "type": "feat"
}
