{
    "_id": "Ndxu9YVGgenYmZSb",
    "data": {
        "actionCategory": {
            "value": "offensive"
        },
        "actionType": {
            "value": "action"
        },
        "actions": {
            "value": 3
        },
        "description": {
            "value": "<p><strong>Requirements</strong> Your Spellstrike is charged.</p>\n<hr />\n<p>The spell you deliver tries to force out magic affecting your enemy. Make a Spellstrike. If it hits, you also attempt to counteract a single spell (of your choice) active on the target.</p>\n<p>The counteract level is half your level rounded up, and the counteract check modifier is the standard modifier for counteracting with a spell (your Intelligence modifier plus your spellcasting proficiency bonus, plus any bonuses or penalties that specifically apply to counteract checks).</p>"
        },
        "featType": {
            "value": "class"
        },
        "level": {
            "value": 16
        },
        "location": "",
        "prerequisites": {
            "value": [
                {
                    "value": "Spellstrike"
                }
            ]
        },
        "rules": [],
        "source": {
            "value": ""
        },
        "traits": {
            "custom": "",
            "rarity": {
                "value": "common"
            },
            "value": [
                "magus"
            ]
        }
    },
    "effects": [],
    "flags": {},
    "img": "systems/pf2e/icons/features/feats/feats.webp",
    "name": "Dispelling Spellstrike",
    "type": "feat"
}
