{
    "_id": "nroOy0PBeEUGdUXD",
    "data": {
        "actionCategory": {
            "value": ""
        },
        "actionType": {
            "value": "passive"
        },
        "actions": {
            "value": null
        },
        "description": {
            "value": "<p>You enhance your spell with elemental water, soaking the target.</p>\n<p>If the next action you use is to Cast a Spell targeting a single creature, you soak the target of the spell with water. If the target has @Compendium[pf2e.conditionitems.Persistent Damage]{Persistent Acid or Fire Damage}, the DC to end those conditions is reduced to 10, and the creature can attempt a flat check to end those types of persistent damage immediately.</p>\n<p>The spell gains the water trait (causing it to deal extra damage to creatures with weakness to water).</p>"
        },
        "featType": {
            "value": "archetype"
        },
        "level": {
            "value": 4
        },
        "location": "",
        "prerequisites": {
            "value": [
                {
                    "value": "Elementalist Dedication"
                }
            ]
        },
        "rules": [],
        "source": {
            "value": ""
        },
        "traits": {
            "custom": "",
            "rarity": {
                "value": "common"
            },
            "value": [
                "archetype",
                "metamagic",
                "water"
            ]
        }
    },
    "effects": [],
    "flags": {},
    "img": "systems/pf2e/icons/default-icons/feat.svg",
    "name": "Dousing Spell",
    "type": "feat"
}
