{
    "_id": "eNeSl5UNaqDwyNkp",
    "data": {
        "actionCategory": {
            "value": ""
        },
        "actionType": {
            "value": "passive"
        },
        "actions": {
            "value": null
        },
        "description": {
            "value": "<p>Your eidolon gains the <em>eidolon's wrath</em> focus spell, which it casts, instead of you. You determine the damage type when you gain the feat: acid, cold, electricity, fire, negative, positive, or sonic. If your eidolon is a celestial, fiend, or monitor with an alignment other than true neutral, you can choose a damage type in its alignment.</p>\n<p>Increase the number of Focus Points in your focus pool by 1. As normal, your eidolon shares your Focus Points.</p>"
        },
        "featType": {
            "value": "class"
        },
        "level": {
            "value": 6
        },
        "location": "",
        "prerequisites": {
            "value": []
        },
        "rules": [
            {
                "key": "ActiveEffectLike",
                "mode": "add",
                "path": "data.resources.focus.max",
                "value": 1
            }
        ],
        "source": {
            "value": ""
        },
        "traits": {
            "custom": "",
            "rarity": {
                "value": "common"
            },
            "value": [
                "evolution",
                "summoner"
            ]
        }
    },
    "effects": [],
    "flags": {},
    "img": "systems/pf2e/icons/default-icons/feat.svg",
    "name": "Eidolon's Wrath",
    "type": "feat"
}
