{
    "_id": "RzfWrOqHL2GcK0rr",
    "data": {
        "actionCategory": {
            "value": ""
        },
        "actionType": {
            "value": "free"
        },
        "actions": {
            "value": null
        },
        "description": {
            "value": "<p><strong>Trigger</strong> You apply a debilitation to a creature.</p>\n<p><strong>Frequency</strong> once per minute</p>\n<hr />\n<p>You can make your debilitation last an exceptionally long time. The triggering debilitation lasts for 1 minute instead of until the end of your next turn.</p>\n<p>@Compendium[pf2e.feature-effects.Effect: Enduring Debilitating Strike]{Effect: Enduring Debilitating Strike}</p>"
        },
        "featType": {
            "value": "class"
        },
        "level": {
            "value": 20
        },
        "location": "",
        "prerequisites": {
            "value": [
                {
                    "value": "Debilitating Strike"
                }
            ]
        },
        "rules": [],
        "source": {
            "value": "Pathfinder #150: Broken Promises"
        },
        "traits": {
            "custom": "",
            "rarity": {
                "value": "uncommon"
            },
            "value": [
                "rogue"
            ]
        }
    },
    "effects": [],
    "flags": {},
    "img": "systems/pf2e/icons/features/feats/feats.webp",
    "name": "Enduring Debilitation",
    "type": "feat"
}
