{
    "_id": "g9AOSz4QDAlUee9M",
    "data": {
        "actionCategory": {
            "value": ""
        },
        "actionType": {
            "value": "free"
        },
        "actions": {
            "value": null
        },
        "description": {
            "value": "<p><strong>Frequency</strong> once per hour</p>\n<hr />\n<p>You always have time for a joke or prank. You Create a Diversion, Conceal an Object, or Hide. All creatures who witnessed your Fox Trick then wise up to it, becoming temporarily immune to your Fox Trick for 24 hours.</p>"
        },
        "featType": {
            "value": "ancestry"
        },
        "level": {
            "value": 9
        },
        "location": "",
        "prerequisites": {
            "value": []
        },
        "rules": [],
        "source": {
            "value": "Pathfinder Lost Omens: Ancestry Guide"
        },
        "traits": {
            "custom": "",
            "rarity": {
                "value": "common"
            },
            "value": [
                "kitsune"
            ]
        }
    },
    "effects": [],
    "flags": {},
    "img": "systems/pf2e/icons/features/feats/feats.webp",
    "name": "Fox Trick",
    "type": "feat"
}
