{
    "_id": "qkXRucQCLLS3VoMa",
    "data": {
        "actionCategory": {
            "value": "interaction"
        },
        "actionType": {
            "value": "passive"
        },
        "actions": {
            "value": null
        },
        "description": {
            "value": "<p>The shared bond between you and your allies allows you to act on their behalf.</p>\n<p>During your daily preparations, you can perform a simple ritual with up to five willing Small or Medium humanoids, where participants exchange minor tokens of personal significance.</p>\n<p>As long as you hold onto a participant's token, you can assume their form with your Change Shape ability, gaining a +4 status bonus to Deception checks to pass as that person and adding your level to the check even if you're untrained. You lose access to a participant's form if they're not carrying your token or if you use the ritual again.</p>"
        },
        "featType": {
            "value": "ancestry"
        },
        "level": {
            "value": 5
        },
        "location": "",
        "prerequisites": {
            "value": []
        },
        "rules": [
            {
                "key": "FlatModifier",
                "label": "Impersonate via Friendform Ritual",
                "predicate": {
                    "all": [
                        "friendform"
                    ]
                },
                "selector": "deception",
                "type": "status",
                "value": 4
            }
        ],
        "source": {
            "value": "Pathfinder Lost Omens: The Mwangi Expanse"
        },
        "traits": {
            "custom": "",
            "rarity": {
                "value": "common"
            },
            "value": [
                "anadi"
            ]
        }
    },
    "effects": [],
    "flags": {},
    "img": "systems/pf2e/icons/default-icons/feats.webp",
    "name": "Friendform",
    "type": "feat"
}
