{
    "_id": "zs2FFGI88zB7EaBT",
    "data": {
        "actionCategory": {
            "value": ""
        },
        "actionType": {
            "value": "passive"
        },
        "actions": {
            "value": null
        },
        "description": {
            "value": "<p>Others' attempts to scare you often grant you insights about your would-be bullies that you can then exploit. If you roll a success on a saving throw against a fear effect, you get a critical success instead, and the source of the fear effect is @Compendium[pf2e.conditionitems.Flat-Footed]{Flat-Footed} to you until the end of your next turn.</p>"
        },
        "featType": {
            "value": "ancestry"
        },
        "level": {
            "value": 1
        },
        "prerequisites": {
            "value": [
                {
                    "value": "umbral gnome heritage"
                }
            ]
        },
        "rules": [],
        "source": {
            "value": "Pathfinder Lost Omens: Character Guide"
        },
        "traits": {
            "custom": "",
            "rarity": {
                "value": "common"
            },
            "value": [
                "gnome"
            ]
        }
    },
    "effects": [],
    "flags": {},
    "img": "systems/pf2e/icons/features/feats/feats.webp",
    "name": "Grim Insight",
    "type": "feat"
}
