{
    "_id": "GYdLf1LhvSUeu95Y",
    "data": {
        "actionCategory": {
            "value": ""
        },
        "actionType": {
            "value": "passive"
        },
        "actions": {
            "value": null
        },
        "description": {
            "value": "<p>Your size and demeanor make it easy for you to convince others that you mean no harm. You gain the @Compendium[pf2e.feats-srd.Shameless Request]{Shameless Request}skill feat as a bonus feat. Additionally, you gain a +1 circumstance bonus to initiative checks when you roll Deception for initiative.</p>"
        },
        "featType": {
            "value": "ancestry"
        },
        "level": {
            "value": 1
        },
        "prerequisites": {
            "value": []
        },
        "rules": [
            {
                "key": "FlatModifier",
                "predicate": {
                    "all": [
                        "deception"
                    ]
                },
                "selector": "initiative",
                "type": "circumstance",
                "value": 1
            }
        ],
        "source": {
            "value": "Pathfinder Lost Omens: Character Guide"
        },
        "traits": {
            "custom": "",
            "rarity": {
                "value": "common"
            },
            "value": [
                "leshy"
            ]
        }
    },
    "effects": [],
    "flags": {},
    "img": "systems/pf2e/icons/features/feats/feats.webp",
    "name": "Harmlessly Cute",
    "type": "feat"
}
