{
    "_id": "F6ZAceuDpiM9bUiF",
    "data": {
        "actionCategory": {
            "value": ""
        },
        "actionType": {
            "value": "passive"
        },
        "actions": {
            "value": null
        },
        "description": {
            "value": "<p>You can use @Compendium[pf2e.feats-srd.Nimble Dodge]{Nimble Dodge} before attempting a Reflex save, in addition to its original trigger. If you do, the circumstance bonus applies to your Reflex save against the triggering effect.</p>\n<p>When you use Nimble Dodge and the triggering attack fails or critically fails, or when you succeed or critically succeed at the saving throw, you can also Stride up to 10 feet as part of the reaction. If you do, the reaction gains the move trait.</p>\n<p>You can use Nimble Roll while Flying or Swimming instead of Striding if you have the corresponding movement type.</p>"
        },
        "featType": {
            "value": "class"
        },
        "level": {
            "value": 8
        },
        "location": "",
        "prerequisites": {
            "value": [
                {
                    "value": "Nimble Dodge"
                }
            ]
        },
        "rules": [
            {
                "key": "FlatModifier",
                "predicate": {
                    "all": [
                        "nimble-dodge"
                    ]
                },
                "selector": "reflex",
                "type": "circumstance",
                "value": 2
            }
        ],
        "source": {
            "value": "Pathfinder Advanced Player's Guide"
        },
        "traits": {
            "custom": "",
            "rarity": {
                "value": "common"
            },
            "value": [
                "rogue",
                "swashbuckler"
            ]
        }
    },
    "effects": [],
    "flags": {},
    "img": "systems/pf2e/icons/features/feats/feats.webp",
    "name": "Nimble Roll",
    "type": "feat"
}
