{
    "_id": "tIE2umG4rQOxm8D8",
    "data": {
        "actionCategory": {
            "value": ""
        },
        "actionType": {
            "value": "action"
        },
        "actions": {
            "value": 2
        },
        "description": {
            "value": "<p><strong>Requirements</strong> You have one or more hands free.</p>\n<hr />\n<p>With a great heave, you seize a piece of your surroundings, such as a boulder, log, table, wagon, or chunk of earth, and hurl it at your foes. The object must be your size or one size smaller than you, and it must not have too much Bulk for you to lift it in the first place.</p>\n<p>Make a ranged @Compendium[pf2e.actionspf2e.Strike]{Strike} with the object; regardless of the result, the object takes the same amount of damage it would deal on a success.</p>\n<p>The object is a simple ranged weapon that deals [[/r {1d10}[bludgeoning]]]{1d10 bludgeoning damage}, has a range increment of 20 feet, and has the thrown weapon trait. The damage increases to [[/r {2d10}[bludgeoning]]]{2d10 bludgeoning damage} if you have @Compendium[pf2e.classfeatures.Weapon Specialization (Barbarian)]{Weapon Specialization} in simple weapons, or [[/r {3d10}[bludgeoning]]]{3d10 bludgeoning damage} if you have @Compendium[pf2e.classfeatures.Greater Weapon Specialization (Barbarian)]{Greater Weapon Specialization}.</p>"
        },
        "featType": {
            "value": "class"
        },
        "level": {
            "value": 4
        },
        "prerequisites": {
            "value": []
        },
        "rules": [],
        "source": {
            "value": "Pathfinder Advanced Player's Guide"
        },
        "traits": {
            "custom": "",
            "rarity": {
                "value": "common"
            },
            "value": [
                "barbarian",
                "rage"
            ]
        }
    },
    "effects": [],
    "flags": {},
    "img": "systems/pf2e/icons/features/feats/feats.webp",
    "name": "Oversized Throw",
    "type": "feat"
}
