{
    "_id": "vDeG0N4kzTBDTC2b",
    "data": {
        "actionCategory": {
            "value": ""
        },
        "actionType": {
            "value": "passive"
        },
        "actions": {
            "value": null
        },
        "description": {
            "value": "<p><strong>Requirements</strong> You have a free hand</p>\n<hr />\n<p>You subtly damage others' equipment. Choose one item that a creature within your reach wields or carries. The item must have moving parts that you could possibly sabotage (a shortbow could be sabotaged, but a longsword could not). Attempt a Thievery check against the Reflex DC of the creature. Damage dealt by Sabotage can't take the item below its Break Threshold.</p>\n<hr />\n<p><strong>Critical Success:</strong> You deal damage equal to four times your Thievery proficiency bonus.</p>\n<p><strong>Success:</strong> You deal damage equal to double your Thievery proficiency bonus.</p>\n<p><strong>Critical Failure:</strong> Temporarily immune to your Sabotage for 1 day</p>"
        },
        "featType": {
            "value": "class"
        },
        "level": {
            "value": 4
        },
        "location": "",
        "prerequisites": {
            "value": []
        },
        "rules": [],
        "source": {
            "value": "Pathfinder Core Rulebook"
        },
        "traits": {
            "custom": "",
            "rarity": {
                "value": "common"
            },
            "value": [
                "rogue",
                "incapacitation"
            ]
        }
    },
    "effects": [],
    "flags": {},
    "img": "systems/pf2e/icons/features/feats/feats.webp",
    "name": "Sabotage",
    "type": "feat"
}
