{
    "_id": "NjPZbQjJJIygS1ru",
    "data": {
        "actionCategory": {
            "value": ""
        },
        "actionType": {
            "value": "action"
        },
        "actions": {
            "value": 1
        },
        "description": {
            "value": "<p><strong>Frequency</strong> once per hour</p>\n<hr />\n<p>You draw on your connection with the Shadow Plane to see through all but the deepest darkness. You gain @Compendium[pf2e.ancestryfeatures.Greater Darkvision]{Greater Darkvision} for 1 minute.</p>"
        },
        "featType": {
            "value": "ancestry"
        },
        "level": {
            "value": 9
        },
        "location": "",
        "prerequisites": {
            "value": []
        },
        "rules": [],
        "source": {
            "value": "Pathfinder Lost Omens: Ancestry Guide"
        },
        "traits": {
            "custom": "",
            "rarity": {
                "value": "common"
            },
            "value": [
                "fetchling",
                "occult",
                "transmutation"
            ]
        }
    },
    "effects": [],
    "flags": {},
    "img": "systems/pf2e/icons/features/feats/feats.webp",
    "name": "Shadow Sight",
    "type": "feat"
}
