{
    "_id": "w3qyriA1YnzXaas3",
    "data": {
        "actionCategory": {
            "value": ""
        },
        "actionType": {
            "value": "passive"
        },
        "actions": {
            "value": null
        },
        "description": {
            "value": "<p>Residual energy from your domain spells bolsters your defenses. When you spend a Focus Point to cast a domain spell, you gain a +1 status bonus to your AC until the start of your next turn.</p>"
        },
        "featType": {
            "value": "class"
        },
        "level": {
            "value": 10
        },
        "location": "",
        "prerequisites": {
            "value": [
                {
                    "value": "Domain Initiate"
                }
            ]
        },
        "rules": [
            {
                "key": "ToggleProperty",
                "label": "Spend a Focus Point on a Domain Spell",
                "property": "flags.pf2e.rollOptions.ac.shield-of-faith"
            },
            {
                "key": "FlatModifier",
                "predicate": {
                    "all": [
                        "shield-of-faith"
                    ]
                },
                "selector": "ac",
                "type": "status",
                "value": 1
            }
        ],
        "source": {
            "value": "Pathfinder Advanced Player's Guide"
        },
        "traits": {
            "custom": "",
            "rarity": {
                "value": "common"
            },
            "value": [
                "cleric"
            ]
        }
    },
    "effects": [],
    "flags": {},
    "img": "systems/pf2e/icons/features/feats/feats.webp",
    "name": "Shield Of Faith",
    "type": "feat"
}
