{
    "_id": "O2iFrAt7hyELJlIR",
    "data": {
        "actionCategory": {
            "value": ""
        },
        "actionType": {
            "value": "action"
        },
        "actions": {
            "value": 1
        },
        "description": {
            "value": "<p><strong>Requirements</strong> You are @Compendium[pf2e.conditionitems.Grabbed]{Grabbed}, @Compendium[pf2e.conditionitems.Immobilized]{Immobilized}, or @Compendium[pf2e.conditionitems.Restrained]{Restrained}.</p>\n<hr />\n<p>You have some feature that allows you to quickly evade effects that restrain you. Attempt a check to Escape. If you succeed, you can Stride, Step, or make a Strike with a melee unarmed attack targeting the creature you Escaped from. If you fail, you instead attempt to Escape a second time.</p>\n<p>You increase your multiple attack penalty as appropriate for the actions you took, but only after completing both actions.</p>"
        },
        "featType": {
            "value": "ancestry"
        },
        "level": {
            "value": 9
        },
        "location": "",
        "prerequisites": {
            "value": []
        },
        "rules": [],
        "source": {
            "value": "Pathfinder Lost Omens: Ancestry Guide"
        },
        "traits": {
            "custom": "",
            "rarity": {
                "value": "common"
            },
            "value": [
                "fleshwarp",
                "flourish"
            ]
        }
    },
    "effects": [],
    "flags": {},
    "img": "systems/pf2e/icons/features/feats/feats.webp",
    "name": "Slip The Grasp",
    "type": "feat"
}
