{
    "_id": "lPoP5TFfq266kR6g",
    "data": {
        "actionCategory": {
            "value": ""
        },
        "actionType": {
            "value": "reaction"
        },
        "actions": {
            "value": null
        },
        "description": {
            "value": "<p><strong>Frequency</strong> once per day</p>\n<p><strong>Trigger</strong> You critically fail at a saving throw against a foe's spell, and that spell was cast or created with the tradition of magic you selected with the @Compendium[pf2e.feats-srd.Spellmaster's Resilience]{Spellmaster's Resilience} feat.</p>\n<hr />\n<p>You call upon the power of your spells to protect you from the worst of the magic headed your way. You fail your saving throw instead of critically failing. For 1 minute, increase the circumstance bonus to saving throws from the Spellmaster's Resilience feat to +2, and increase the resistance to damage it grants to 10.</p>"
        },
        "featType": {
            "value": "archetype"
        },
        "level": {
            "value": 14
        },
        "prerequisites": {
            "value": [
                {
                    "value": "Spellmaster Dedication"
                }
            ]
        },
        "rules": [],
        "source": {
            "value": "Pathfinder Lost Omens: Pathfinder Society Guide"
        },
        "traits": {
            "custom": "",
            "rarity": {
                "value": "common"
            },
            "value": [
                "archetype"
            ]
        }
    },
    "effects": [],
    "flags": {},
    "img": "systems/pf2e/icons/features/feats/feats.webp",
    "name": "Spellmaster's Tenacity",
    "type": "feat"
}
