{
    "_id": "HOUHs5rahwIsQoBf",
    "data": {
        "actionCategory": {
            "value": ""
        },
        "actionType": {
            "value": "passive"
        },
        "actions": {
            "value": null
        },
        "description": {
            "value": "<p>You have a knack for noticing even small inconsistencies and craftsmanship techniques in the stonework around you. You gain a +2 circumstance bonus to Perception checks to notice unusual stonework. This bonus applies to checks to discover mechanical traps made of stone or hidden within stone. If you aren't using the Seek action or searching, the GM automatically rolls a secret check for you to notice unusual stonework anyway. This check doesn't gain the circumstance bonus, and it takes a -2 circumstance penalty.</p>"
        },
        "featType": {
            "value": "ancestry"
        },
        "level": {
            "value": 1
        },
        "location": "",
        "prerequisites": {
            "value": []
        },
        "rules": [
            {
                "key": "FlatModifier",
                "label": "To Notice Unusual Stonework",
                "predicate": {
                    "all": [
                        "action:seek",
                        "terrain:unusual-stonework"
                    ]
                },
                "selector": "perception",
                "type": "circumstance",
                "value": 2
            },
            {
                "key": "FlatModifier",
                "label": "GM: To Notice Unusual Stonework",
                "predicate": {
                    "all": [
                        "terrain:unusual-stonework",
                        "secret"
                    ],
                    "not": [
                        "action:seek"
                    ]
                },
                "selector": "perception",
                "type": "circumstance",
                "value": -2
            }
        ],
        "source": {
            "value": "Pathfinder Core Rulebook"
        },
        "traits": {
            "custom": "",
            "rarity": {
                "value": "common"
            },
            "value": [
                "dwarf"
            ]
        }
    },
    "effects": [],
    "flags": {},
    "img": "systems/pf2e/icons/features/feats/feats.webp",
    "name": "Stonecunning",
    "type": "feat"
}
