{
    "_id": "otK6eG3b3FV7n2xP",
    "data": {
        "description": {
            "value": "<p>You call upon the spirits of the soil to twist and churn, transforming the terrain in the targeted area into a sodden mess. The area becomes difficult terrain. Creatures in the area when you Cast this Spell must attempt a Reflex saving throw.</p>\n<hr />\n<p><strong>Critical Failure</strong> The creature sinks partially into the mud. The creature takes a -15-foot circumstance penalty to its Speeds (except for its swim Speed, if any) and becomes @Compendium[pf2e.conditionitems.Flat-Footed]{Flat-Footed}. These effects last until the creature leaves the area or until the end of its next turn, whichever comes first.</p>"
        },
        "duration": {
            "expiry": "turn-start",
            "sustained": false,
            "unit": "unlimited",
            "value": -1
        },
        "level": {
            "value": 1
        },
        "rules": [
            {
                "key": "FlatModifier",
                "selector": "speed",
                "type": "circumstance",
                "value": -15
            }
        ],
        "source": {
            "value": "Pathfinder #171: Hurricane's Howl"
        },
        "start": {
            "initiative": null,
            "value": 0
        },
        "target": null,
        "tokenIcon": {
            "show": true
        },
        "traits": {
            "custom": "",
            "rarity": {
                "value": "common"
            },
            "value": []
        }
    },
    "effects": [],
    "flags": {},
    "img": "systems/pf2e/icons/default-icons/effect.svg",
    "name": "Spell Effect: Swampcall (Critical Failure)",
    "type": "effect"
}
