{
    "_id": "sfJyQKmoxSRo6FyP",
    "data": {
        "description": {
            "value": "<p>Harnessing the power of vile entities, you transform yourself into a Large aberration. You must have enough space to expand into or the spell is lost. When you cast this spell, choose chuul, gogiteth, gug, or otyugh. While in this form, you gain the aberration trait. You can Dismiss the spell.</p>\n<p>You gain the following statistics and abilities regardless of which battle form you choose:</p>\n<ul>\n<li>AC = 18 + your level. Ignore your armor's check penalty and Speed reduction.</li>\n<li>13 temporary Hit Points.</li>\n<li>Darkvision.</li>\n<li>One or more unarmed melee attacks specific to the battle form you choose, which are the only attacks you can use. You're trained with them. Your attack modifier is +18, and you use the listed damage. These attacks are Strength based (for the purpose of the enfeebled condition, for example). If your unarmed attack modifier is higher, you can use it instead.</li>\n<li>Athletics modifier of +20, unless your own modifier is higher.</li>\n</ul>\n<p>You also gain specific abilities based on the type of aberration you choose:</p>\n<ul>\n<li><strong>Gug</strong></li>\n<ul>\n<li>Speed 40 feet, climb 20 feet;</li>\n<li><strong>Melee</strong> <span class=\"pf2-icon\">1</span> jaws (reach 10 feet), <strong>Damage</strong> 2d12+8 piercing;</li>\n<li><strong>Melee</strong> <span class=\"pf2-icon\">1</span> claw (agile, reach 10 feet), <strong>Damage</strong> 2d8+8 slashing;</li>\n<li>your multiple joints allow you to fit through tight spaces as if you were a Medium creature.</li>\n</ul>\n</ul>\n<hr />\n<p><strong>Heightened (6th)</strong> Your battle form is Huge, and the reach of your attacks increases by 5 feet. You must have space to expand, or the spell is lost. You instead gain AC = 21 + your level, 26 temporary HP, attack modifier +22, damage bonus +13, and Athletics +23.</p>"
        },
        "duration": {
            "expiry": "turn-start",
            "sustained": false,
            "unit": "minutes",
            "value": 1
        },
        "level": {
            "value": 5
        },
        "rules": [
            {
                "key": "BattleForm",
                "overrides": {
                    "senses": {
                        "darkvision": {}
                    },
                    "speeds": {
                        "climb": 20,
                        "land": 40
                    },
                    "strikes": {
                        "claw": {
                            "ability": "str",
                            "baseType": "claw",
                            "category": "unarmed",
                            "damage": {
                                "damageType": "slashing",
                                "dice": 2,
                                "die": "d8"
                            },
                            "group": "brawling",
                            "label": "PF2E.Weapon.Base.claw",
                            "traits": [
                                "agile",
                                "reach-10"
                            ]
                        },
                        "jaws": {
                            "ability": "str",
                            "baseType": "jaws",
                            "category": "unarmed",
                            "damage": {
                                "damageType": "piercing",
                                "dice": 2,
                                "die": "d12"
                            },
                            "group": "brawling",
                            "label": "PF2E.Weapon.Base.jaws",
                            "traits": [
                                "reach-10"
                            ]
                        }
                    },
                    "traits": [
                        "aberration"
                    ]
                },
                "value": {
                    "brackets": [
                        {
                            "end": 5,
                            "start": 5,
                            "value": {
                                "armorClass": {
                                    "modifier": "18 + @details.level.value"
                                },
                                "size": "lg",
                                "skills": {
                                    "ath": {
                                        "modifier": 20
                                    }
                                },
                                "strikes": {
                                    "claw": {
                                        "damage": {
                                            "modifier": 8
                                        },
                                        "modifier": 18,
                                        "traits": [
                                            "agile",
                                            "reach-10"
                                        ]
                                    },
                                    "jaws": {
                                        "damage": {
                                            "modifier": 8
                                        },
                                        "modifier": 18,
                                        "traits": [
                                            "reach-10"
                                        ]
                                    }
                                },
                                "tempHP": 13
                            }
                        },
                        {
                            "start": 6,
                            "value": {
                                "armorClass": {
                                    "modifier": "21 + @details.level.value"
                                },
                                "size": "huge",
                                "skills": {
                                    "ath": {
                                        "modifier": 23
                                    }
                                },
                                "strikes": {
                                    "jaws": {
                                        "damage": {
                                            "modifier": 13
                                        },
                                        "modifier": 22,
                                        "traits": [
                                            "reach-15"
                                        ]
                                    },
                                    "leg": {
                                        "damage": {
                                            "modifier": 13
                                        },
                                        "modifier": 22,
                                        "traits": [
                                            "agile",
                                            "reach-15"
                                        ]
                                    }
                                },
                                "tempHP": 26
                            }
                        }
                    ],
                    "field": "item|data.level.value"
                }
            },
            {
                "key": "Note",
                "selector": "acrobatics",
                "text": "<p class='compact-text'><strong>Squeeze</strong>: Your multiple joints allow you to fit through tight spaces as if you were a Medium creature..</p>"
            }
        ],
        "source": {
            "value": ""
        },
        "start": {
            "initiative": null,
            "value": 0
        },
        "target": null,
        "tokenIcon": {
            "show": true
        },
        "traits": {
            "custom": "",
            "rarity": {
                "value": "common"
            },
            "value": []
        }
    },
    "effects": [],
    "flags": {},
    "img": "systems/pf2e/icons/spells/aberrant-form.webp",
    "name": "Spell Effect: Aberrant Form (Gug)",
    "type": "effect"
}
