{
    "_id": "EUxTav62IXTz5CxW",
    "data": {
        "description": {
            "value": "<p>The primal power of the world flows through you. You transform into an incarnation of nature, either a green man or a kaiju. Your battle form is Medium for a green man or Gargantuan (30-foot-by-30-foot space) for a kaiju. You must have enough space to expand into or the spell is lost. While in this form, you gain the plant trait (for a green man) or the beast trait (for a kaiju). You can Dismiss the spell.</p>\n<p>You gain the following statistics and abilities regardless of which battle form you choose:</p>\n<ul>\n<li>AC = 25 + your level. Ignore your armor's check penalty and Speed reduction.</li>\n<li>30 temporary Hit Points.</li>\n<li>Darkvision.</li>\n<li>One or more attacks specific to the battle form you choose, which are the only attacks you can use. You're trained with them. Your attack modifier is +34, and you use the listed damage. These attacks are Strength based (for the purpose of the @Compendium[pf2e.conditionitems.Enfeebled]{Enfeebled} condition, for example). If your unarmed attack modifier is higher, you can use it instead.</li>\n<li>Athletics modifier of +36, unless your own modifier is higher.</li>\n</ul>\n<p>You also gain specific abilities based on the type of incarnation you choose:</p>\n<ul>\n<li><strong>Kaiju</strong> Speed 50 feet; resistance 5 to physical damage;\n<ul>\n<li><strong>Melee</strong> <span class=\"pf2-icon\">1 </span>jaws (reach 30 feet), <strong>Damage</strong> 6d10+10 piercing;</li>\n<li><strong>Melee</strong> <span class=\"pf2-icon\">1 </span>claws (agile, reach 30 feet), <strong>Damage</strong> 6d8+8 slashing;</li>\n<li><strong>Melee</strong> <span class=\"pf2-icon\">1 </span>foot (agile, reach 15 feet), <strong>Damage</strong> 6d6+10 bludgeoning;</li>\n<li><strong>Unstoppable</strong> You are immune to being @Compendium[pf2e.conditionitems.Immobilized]{Immobilized} and ignore difficult terrain and greater difficult terrain;</li>\n<li><strong>Trample</strong> <span class=\"pf2-icon\">3</span> You move up to double your Speed and move through the spaces of Huge or smaller creatures, trampling each creature whose space you enter. A trampled creature takes foot damage with a basic Reflex save against your spell DC.</li>\n</ul>\n</li>\n</ul>"
        },
        "duration": {
            "expiry": "turn-start",
            "sustained": false,
            "unit": "minutes",
            "value": 1
        },
        "level": {
            "value": 10
        },
        "rules": [
            {
                "key": "BattleForm",
                "overrides": {
                    "armorClass": {
                        "modifier": "25 + @details.level.value"
                    },
                    "resistances": [
                        {
                            "type": "physical",
                            "value": 5
                        }
                    ],
                    "senses": {
                        "darkvision": {}
                    },
                    "size": "grg",
                    "skills": {
                        "ath": {
                            "modifier": 36
                        }
                    },
                    "speeds": {
                        "land": 50
                    },
                    "strikes": {
                        "claw": {
                            "baseType": "claw",
                            "category": "unarmed",
                            "damage": {
                                "damageType": "slashing",
                                "dice": 6,
                                "die": "d8",
                                "modifier": 8
                            },
                            "group": "brawling",
                            "label": "PF2E.Weapon.Base.claw",
                            "modifier": 34,
                            "traits": [
                                "unarmed",
                                "agile",
                                "reach-30"
                            ]
                        },
                        "foot": {
                            "category": "unarmed",
                            "damage": {
                                "damageType": "bludgeoning",
                                "dice": 6,
                                "die": "d6",
                                "modifier": 10
                            },
                            "group": "brawling",
                            "modifier": 34,
                            "traits": [
                                "unarmed",
                                "agile",
                                "reach-15"
                            ]
                        },
                        "jaws": {
                            "baseType": "jaws",
                            "category": "unarmed",
                            "damage": {
                                "damageType": "piercing",
                                "dice": 6,
                                "die": "d10",
                                "modifier": 10
                            },
                            "group": "brawling",
                            "label": "PF2E.Weapon.Base.jaws",
                            "modifier": 34,
                            "traits": [
                                "unarmed",
                                "reach-30"
                            ]
                        }
                    },
                    "tempHP": 30,
                    "traits": [
                        "beast"
                    ]
                }
            }
        ],
        "source": {
            "value": ""
        },
        "start": {
            "initiative": null,
            "value": 0
        },
        "target": null,
        "tokenIcon": {
            "show": true
        },
        "traits": {
            "custom": "",
            "rarity": {
                "value": "common"
            },
            "value": []
        }
    },
    "effects": [],
    "flags": {},
    "img": "systems/pf2e/icons/spells/nature-incarnate.webp",
    "name": "Spell Effect: Nature Incarnate (Kaiju)",
    "type": "effect"
}
