{
    "_id": "Fjnm1l59KH5YJ7G9",
    "data": {
        "description": {
            "value": "<p>Granted by succeeding on <em>@Compendium[pf2e.spells-srd.Inspire Heroics]{Inspire Heroics}</em> to enhance <em>@Compendium[pf2e.spells-srd.Song of Strength]{Song of Strength}</em></p>\n<p>You bolster your allies' physical strength with a hearty exhortation. You and your allies gain a +2 status bonus to Athletics checks and to their DCs against Athletics skill actions such as Disarm, Shove, and Trip.</p>\n<p><em>Note: bonus to DCs is not automatically added.</em></p>"
        },
        "duration": {
            "expiry": "turn-start",
            "sustained": false,
            "unit": "rounds",
            "value": 1
        },
        "level": {
            "value": 1
        },
        "rules": [
            {
                "key": "FlatModifier",
                "label": "Inspire Defense",
                "selector": "ac",
                "type": "status",
                "value": 2
            },
            {
                "key": "FlatModifier",
                "label": "Inspire Defense",
                "selector": "saving-throw",
                "type": "status",
                "value": 2
            }
        ],
        "source": {
            "value": ""
        },
        "start": {
            "initiative": null,
            "value": 0
        },
        "target": null,
        "tokenIcon": {
            "show": true
        },
        "traits": {
            "custom": "",
            "rarity": {
                "value": "common"
            },
            "value": []
        }
    },
    "effects": [],
    "flags": {},
    "img": "systems/pf2e/icons/spells/inspire-heroics.webp",
    "name": "Spell Effect: Inspire Heroics (Strength, +2)",
    "type": "effect"
}
