{
    "_id": "3qqvnC2U8W26yae7",
    "data": {
        "actionCategory": {
            "value": ""
        },
        "actionType": {
            "value": "passive"
        },
        "actions": {
            "value": null
        },
        "description": {
            "value": "<p>Something speaks to you from beyond the stars or below the earth. Ancient and unknowable, this alien influence presses against your mind.</p>\n<p><strong>Spell List</strong> occult</p>\n<p><strong>Bloodline Skills</strong> Intimidation, Occultism</p>\n<p><strong>Granted Spells:</strong> cantrip <em>@Compendium[pf2e.spells-srd.Daze]{Daze}</em>, 1st: <em>@Compendium[pf2e.spells-srd.Spider Sting]{Spider Sting}</em>, 2nd: <em>@Compendium[pf2e.spells-srd.Touch of Idiocy]{Touch of Idiocy}</em>, 3rd: <em>@Compendium[pf2e.spells-srd.Vampiric Touch]{Vampiric Touch}</em>, 4th: <em>@Compendium[pf2e.spells-srd.Confusion]{Confusion}</em>, 5th: <em>@Compendium[pf2e.spells-srd.Black Tentacles]{Black Tentacles}</em>, 6th: <em>@Compendium[pf2e.spells-srd.Feeblemind]{Feeblemind}</em>, 7th: <em>@Compendium[pf2e.spells-srd.Warp Mind]{Warp Mind}</em>, 8th: <em>@Compendium[pf2e.spells-srd.Uncontrollable Dance]{Uncontrollable Dance}</em>, 9th: <em>@Compendium[pf2e.spells-srd.Spirit Song]{Spirit Song}</em></p>\n<p><strong>Bloodline Spells</strong> initial: <em>@Compendium[pf2e.spells-srd.Tentacular Limbs]{Tentacular Limbs}</em>, advanced: <em>@Compendium[pf2e.spells-srd.Aberrant Whispers]{Aberrant Whispers}</em>, greater: <em>@Compendium[pf2e.spells-srd.Unusual Anatomy]{Unusual Anatomy}</em></p>\n<p><strong>Blood Magic</strong> Aberrant whispers shield one target's mind or your own, granting a +2 status bonus to Will saving throws for 1 round.</p>\n<p>@Compendium[pf2e.feature-effects.Effect: Aberrant Blood Magic]{Effect: Aberrant Blood Magic}</p>"
        },
        "featType": {
            "value": "classfeature"
        },
        "level": {
            "value": 1
        },
        "location": "",
        "prerequisites": {
            "value": []
        },
        "rules": [
            {
                "key": "ActiveEffectLike",
                "mode": "upgrade",
                "path": "data.resources.focus.max",
                "priority": 10,
                "value": 1
            },
            {
                "key": "ActiveEffectLike",
                "mode": "upgrade",
                "path": "data.skills.itm.rank",
                "value": 1
            },
            {
                "key": "ActiveEffectLike",
                "mode": "upgrade",
                "path": "data.skills.occ.rank",
                "value": 1
            },
            {
                "key": "ActiveEffectLike",
                "mode": "override",
                "path": "data.proficiencies.aliases.sorcerer",
                "priority": 39,
                "value": "occult"
            }
        ],
        "source": {
            "value": ""
        },
        "traits": {
            "custom": "",
            "rarity": {
                "value": "common"
            },
            "value": [
                "sorcerer"
            ]
        }
    },
    "effects": [],
    "flags": {},
    "img": "systems/pf2e/icons/features/classes/aberrant.webp",
    "name": "Bloodline: Aberrant",
    "type": "feat"
}
