{
    "_id": "7lanxgmoOHNdtDe2",
    "data": {
        "actionCategory": {
            "value": ""
        },
        "actionType": {
            "value": "passive"
        },
        "actions": {
            "value": null
        },
        "description": {
            "value": "<p>You have progressed along your own path to enlightenment.</p>\n<p>Choose your Fortitude, Reflex, or Will saving throw. Your proficiency rank for the chosen saving throw increases to master. When you roll a success on the chosen saving throw, you get a critical success instead.</p>"
        },
        "featType": {
            "value": "classfeature"
        },
        "level": {
            "value": 7
        },
        "location": "",
        "prerequisites": {
            "value": []
        },
        "rules": [
            {
                "key": "Note",
                "selector": "will",
                "text": "<p class='compact-text'><strong>{item|name}</strong> When you roll a success on a Will save, you get a critical success instead.</p>"
            },
            {
                "adjustment": {
                    "success": "one-degree-better"
                },
                "key": "AdjustDegreeOfSuccess",
                "selector": "will",
                "type": "save"
            },
            {
                "key": "ActiveEffectLike",
                "mode": "upgrade",
                "path": "data.saves.will.rank",
                "value": 3
            }
        ],
        "source": {
            "value": ""
        },
        "traits": {
            "custom": "",
            "rarity": {
                "value": "common"
            },
            "value": [
                "monk"
            ]
        }
    },
    "effects": [],
    "flags": {},
    "img": "systems/pf2e/icons/features/classes/path-to-perfection.webp",
    "name": "Path to Perfection (Will)",
    "type": "feat"
}
