{
    "_id": "aMIb3Xm64NzRj8YP",
    "data": {
        "abilities": {
            "cha": {
                "mod": 0
            },
            "con": {
                "mod": 3
            },
            "dex": {
                "mod": 5
            },
            "int": {
                "mod": -1
            },
            "str": {
                "mod": 2
            },
            "wis": {
                "mod": 2
            }
        },
        "attributes": {
            "ac": {
                "details": "",
                "value": 21
            },
            "allSaves": {
                "value": ""
            },
            "hp": {
                "details": "",
                "max": 60,
                "temp": 0,
                "value": 60
            },
            "initiative": {
                "ability": "perception"
            },
            "perception": {
                "value": 11
            },
            "shield": {
                "ac": 0,
                "brokenThreshold": 0,
                "hardness": 0,
                "max": 0,
                "value": 0
            },
            "speed": {
                "otherSpeeds": [
                    {
                        "exceptions": "",
                        "label": "Burrow",
                        "type": "burrow",
                        "value": "10"
                    },
                    {
                        "exceptions": "",
                        "label": "Climb",
                        "type": "climb",
                        "value": "30"
                    }
                ],
                "value": "30"
            }
        },
        "details": {
            "alignment": {
                "value": "CE"
            },
            "blurb": "",
            "creatureType": "Plant",
            "level": {
                "value": 4
            },
            "privateNotes": "",
            "publicNotes": "<p>A mandragora looks like a freshly pulled tuber that has grown into the malformed shape of a child with a grotesque face and hideously bloated body. These insidious little plants typically form when a mandrake root is watered with a demon's blood. Upon absorbing the otherworldly properties of the demon's blood, the root animates and is forced to seek out blood to feast from, lest it die of thirst.</p>\n<p>Always famished and in search for sustenance, mandragoras live haunted, pained lives and perform vile and desperate acts to acquire the blood they crave. While they prefer magically infused blood such as that of unicorns, fey, or sorcerers, and they can also feed off of potions, alchemical bombs, and other magical elixirs, a mandragora can subsist on the blood of non-magical creatures. They find the flavor of mundane blood to be bland and bitter, and they do not blanch at voicing these complaints to the creatures from which they drink.</p>\n<p>While the typical mandragora is the size of a human child, some of these evil plants continue to grow and grow, reaching sizes more comparable to those of giants. Sometimes as they grow, they form additional limbs or rudimentary faces, eventually transforming into truly hideous mockeries of the human form.</p>",
            "source": {
                "value": "Pathfinder Bestiary 2"
            }
        },
        "resources": {},
        "saves": {
            "fortitude": {
                "saveDetail": "",
                "value": 11
            },
            "reflex": {
                "saveDetail": "",
                "value": 13
            },
            "will": {
                "saveDetail": "",
                "value": 8
            }
        },
        "traits": {
            "attitude": {
                "value": "hostile"
            },
            "ci": [],
            "di": {
                "custom": "",
                "value": []
            },
            "dr": [
                {
                    "label": "Bludgeoning",
                    "type": "bludgeoning",
                    "value": "5"
                },
                {
                    "label": "Electricity",
                    "type": "electricity",
                    "value": "5"
                }
            ],
            "dv": [
                {
                    "label": "Fire",
                    "type": "fire",
                    "value": "5"
                }
            ],
            "languages": {
                "custom": "",
                "selected": [],
                "value": [
                    "abyssal",
                    "common"
                ]
            },
            "rarity": {
                "value": "common"
            },
            "senses": {
                "value": "blood scent, low-light vision"
            },
            "size": {
                "value": "sm"
            },
            "traits": {
                "custom": "",
                "value": [
                    "plant"
                ]
            }
        }
    },
    "effects": [],
    "flags": {},
    "img": "systems/pf2e/icons/default-icons/npc.svg",
    "items": [
        {
            "_id": "Ar58HUSjCtqUCBWd",
            "data": {
                "attack": {
                    "value": ""
                },
                "attackEffects": {
                    "value": [
                        "grab"
                    ]
                },
                "bonus": {
                    "value": 14
                },
                "damageRolls": {
                    "aw8qbg71ilfmw9o2jqx6": {
                        "damage": "2d8+4",
                        "damageType": "piercing"
                    }
                },
                "description": {
                    "value": ""
                },
                "rules": [],
                "slug": null,
                "source": {
                    "value": ""
                },
                "traits": {
                    "custom": "",
                    "rarity": {
                        "value": "common"
                    },
                    "value": [
                        "finesse"
                    ]
                },
                "weaponType": {
                    "value": "melee"
                }
            },
            "effects": [],
            "flags": {},
            "img": "systems/pf2e/icons/default-icons/melee.svg",
            "name": "Jaws",
            "sort": 100000,
            "type": "melee"
        },
        {
            "_id": "xqB9FvxJUsDUDs15",
            "data": {
                "attack": {
                    "value": ""
                },
                "attackEffects": {
                    "custom": "",
                    "value": [
                        "mandragora-venom"
                    ]
                },
                "bonus": {
                    "value": 14
                },
                "damageRolls": {
                    "0": {
                        "damage": "2d4+4",
                        "damageType": "slashing"
                    }
                },
                "description": {
                    "value": ""
                },
                "rules": [],
                "slug": null,
                "source": {
                    "value": ""
                },
                "traits": {
                    "custom": "",
                    "rarity": {
                        "value": "common"
                    },
                    "value": [
                        "agile",
                        "finesse",
                        "reach-10"
                    ]
                },
                "weaponType": {
                    "value": "melee"
                }
            },
            "effects": [],
            "flags": {},
            "img": "systems/pf2e/icons/default-icons/melee.svg",
            "name": "Thorny Vine",
            "sort": 200000,
            "type": "melee"
        },
        {
            "_id": "ExsxFy6Bmcgsy0GX",
            "data": {
                "actionCategory": {
                    "value": "interaction"
                },
                "actionType": {
                    "value": "passive"
                },
                "actions": {
                    "value": null
                },
                "description": {
                    "value": "<p>@Localize[PF2E.NPC.Abilities.Glossary.LowLightVision]</p>"
                },
                "requirements": {
                    "value": ""
                },
                "rules": [],
                "slug": "low-light-vision",
                "source": {
                    "value": ""
                },
                "traits": {
                    "custom": "",
                    "rarity": {
                        "value": "common"
                    },
                    "value": []
                },
                "trigger": {
                    "value": ""
                },
                "weapon": {
                    "value": ""
                }
            },
            "effects": [],
            "flags": {
                "core": {
                    "sourceId": "Compendium.pf2e.bestiary-ability-glossary-srd.fFu2sZz4KB01fVRc"
                }
            },
            "img": "systems/pf2e/icons/default-icons/action.svg",
            "name": "Low-Light Vision",
            "sort": 300000,
            "type": "action"
        },
        {
            "_id": "ZvqnxVWvm9QdJZVi",
            "data": {
                "actionCategory": {
                    "value": "interaction"
                },
                "actionType": {
                    "value": "passive"
                },
                "actions": {
                    "value": null
                },
                "description": {
                    "value": "<p>A mandragora can smell creatures with blood as an imprecise sense at a range of 30 feet, and it can smell demons, fey, and sorcerers with blood as a precise sense at a range of 30 feet.</p>"
                },
                "requirements": {
                    "value": ""
                },
                "rules": [],
                "slug": null,
                "source": {
                    "value": ""
                },
                "traits": {
                    "custom": "",
                    "rarity": {
                        "value": "common"
                    },
                    "value": [
                        "fey"
                    ]
                },
                "trigger": {
                    "value": ""
                },
                "weapon": {
                    "value": ""
                }
            },
            "effects": [],
            "flags": {},
            "img": "systems/pf2e/icons/default-icons/mystery-man.svg",
            "name": "Blood Scent",
            "sort": 400000,
            "type": "action"
        },
        {
            "_id": "uQFiXxjHXOCxLHe8",
            "data": {
                "actionCategory": {
                    "value": "defensive"
                },
                "actionType": {
                    "value": "passive"
                },
                "actions": {
                    "value": null
                },
                "description": {
                    "value": "<p>Whenever a mandragora begins its turn in an area of magical darkness, it is @Compendium[pf2e.conditionitems.Slowed]{Slowed 1} on that turn.</p>"
                },
                "requirements": {
                    "value": ""
                },
                "rules": [],
                "slug": null,
                "source": {
                    "value": ""
                },
                "traits": {
                    "custom": "",
                    "rarity": {
                        "value": "common"
                    },
                    "value": []
                },
                "trigger": {
                    "value": ""
                },
                "weapon": {
                    "value": ""
                }
            },
            "effects": [],
            "flags": {},
            "img": "systems/pf2e/icons/actions/Passive.webp",
            "name": "Vulnerability to Supernatural Darkness",
            "sort": 500000,
            "type": "action"
        },
        {
            "_id": "sfWdhP3dRBdtmiol",
            "data": {
                "actionCategory": {
                    "value": "offensive"
                },
                "actionType": {
                    "value": "action"
                },
                "actions": {
                    "value": 1
                },
                "description": {
                    "value": "<p><strong>Requirements</strong> The mandragora has a creature @Compendium[pf2e.conditionitems.Grabbed]{Grabbed};</p>\n<p><strong>Effect</strong> The mandragora drains blood from the creature it has grabbed, dealing [[/r 2d6]] damage. If the creature is a demon, fey, or sorcerer, the mandragora gains temporary Hit Points equal to the damage dealt.</p>\n<p>A creature that has its blood drained by a mandragora is @Compendium[pf2e.conditionitems.Drained]{Drained 1} until it receives healing of any kind or amount.</p>"
                },
                "requirements": {
                    "value": ""
                },
                "rules": [],
                "slug": null,
                "source": {
                    "value": ""
                },
                "traits": {
                    "custom": "",
                    "rarity": {
                        "value": "common"
                    },
                    "value": [
                        "fey"
                    ]
                },
                "trigger": {
                    "value": ""
                },
                "weapon": {
                    "value": ""
                }
            },
            "effects": [],
            "flags": {},
            "img": "systems/pf2e/icons/actions/OneAction.webp",
            "name": "Blood Drain",
            "sort": 600000,
            "type": "action"
        },
        {
            "_id": "wrisTXltKN2ggF1B",
            "data": {
                "actionCategory": {
                    "value": "offensive"
                },
                "actionType": {
                    "value": "passive"
                },
                "actions": {
                    "value": null
                },
                "description": {
                    "value": "<p><strong>Saving Throw</strong> <span data-pf2-check=\"fortitude\" data-pf2-dc=\"21\" data-pf2-traits=\"poison\" data-pf2-label=\"Mandragora Venom DC\" data-pf2-show-dc=\"gm\">Fortitude</span>;</p>\n<p><strong>Maximum Duration</strong> 6 rounds;</p>\n<p><strong>Stage 1</strong> [[/r {1d6}[poison]]]{1d6 poison damage} and @Compendium[pf2e.conditionitems.Stupefied]{Stupefied 1} (1 round);</p>\n<p><strong>Stage 2</strong> [[/r {1d6}[poison]]]{1d6 poison damage}, @Compendium[pf2e.conditionitems.Confused]{Confused}, and @Compendium[pf2e.conditionitems.Stupefied]{Stupefied 1} (1 round);</p>\n<p><strong>Stage 3</strong> [[/r {2d6}[poison]]]{2d6 poison damage}, confused, and @Compendium[pf2e.conditionitems.Stupefied]{Stupefied 1} (1 round)</p>"
                },
                "requirements": {
                    "value": ""
                },
                "rules": [],
                "slug": null,
                "source": {
                    "value": ""
                },
                "traits": {
                    "custom": "",
                    "rarity": {
                        "value": "common"
                    },
                    "value": [
                        "poison"
                    ]
                },
                "trigger": {
                    "value": ""
                },
                "weapon": {
                    "value": ""
                }
            },
            "effects": [],
            "flags": {},
            "img": "systems/pf2e/icons/default-icons/mystery-man.svg",
            "name": "Mandragora Venom",
            "sort": 700000,
            "type": "action"
        },
        {
            "_id": "w0XMZ6GmkzJcCRyO",
            "data": {
                "actionCategory": {
                    "value": "offensive"
                },
                "actionType": {
                    "value": "action"
                },
                "actions": {
                    "value": 1
                },
                "description": {
                    "value": "<p><strong>Frequency</strong> once per day;</p>\n<p><strong>Effect</strong> The mandragora emits an unsettling shriek. Each non-mandragora creature within 30 feet must attempt a <span data-pf2-check=\"will\" data-pf2-dc=\"25\" data-pf2-traits=\"auditory,evocation,mental,primal\" data-pf2-label=\"Piercing Shriek DC\" data-pf2-show-dc=\"gm\">Will</span> save.</p>\n<hr />\n<p><strong>Critical Success</strong> The creature is unaffected.</p>\n<p><strong>Success</strong> The creature is @Compendium[pf2e.conditionitems.Sickened]{Sickened 1}.</p>\n<p><strong>Failure</strong> The creature is @Compendium[pf2e.conditionitems.Sickened]{Sickened 2}.</p>\n<p><strong>Critical Failure</strong> The creature is @Compendium[pf2e.conditionitems.Sickened]{Sickened 2} and @Compendium[pf2e.conditionitems.Slowed]{Slowed 1}. As long as the creature remains sickened, this slowed condition value can't be reduced below 1.</p>"
                },
                "requirements": {
                    "value": ""
                },
                "rules": [],
                "slug": null,
                "source": {
                    "value": ""
                },
                "traits": {
                    "custom": "",
                    "rarity": {
                        "value": "common"
                    },
                    "value": [
                        "auditory",
                        "evocation",
                        "mental",
                        "primal"
                    ]
                },
                "trigger": {
                    "value": ""
                },
                "weapon": {
                    "value": ""
                }
            },
            "effects": [],
            "flags": {},
            "img": "systems/pf2e/icons/actions/OneAction.webp",
            "name": "Piercing Shriek",
            "sort": 800000,
            "type": "action"
        },
        {
            "_id": "vda7kHsnuwSQWtXd",
            "data": {
                "actionCategory": {
                    "value": "offensive"
                },
                "actionType": {
                    "value": "action"
                },
                "actions": {
                    "value": 1
                },
                "description": {
                    "value": "<p>@Localize[PF2E.NPC.Abilities.Glossary.Grab]</p>"
                },
                "requirements": {
                    "value": ""
                },
                "rules": [],
                "slug": "grab",
                "source": {
                    "value": ""
                },
                "traits": {
                    "custom": "",
                    "rarity": {
                        "value": "common"
                    },
                    "value": []
                },
                "trigger": {
                    "value": ""
                },
                "weapon": {
                    "value": ""
                }
            },
            "effects": [],
            "flags": {
                "core": {
                    "sourceId": "Compendium.pf2e.bestiary-ability-glossary-srd.Tkd8sH4pwFIPzqTr"
                }
            },
            "img": "systems/pf2e/icons/actions/OneAction.webp",
            "name": "Grab",
            "sort": 900000,
            "type": "action"
        },
        {
            "_id": "iWX9xJurU9y34sZ8",
            "data": {
                "description": {
                    "value": ""
                },
                "item": {
                    "value": 0
                },
                "mod": {
                    "value": 10
                },
                "proficient": {
                    "value": 0
                },
                "rules": [],
                "slug": null,
                "source": {
                    "value": ""
                },
                "traits": {
                    "custom": "",
                    "rarity": {
                        "value": "common"
                    },
                    "value": []
                }
            },
            "effects": [],
            "flags": {},
            "img": "systems/pf2e/icons/default-icons/lore.svg",
            "name": "Acrobatics",
            "sort": 1000000,
            "type": "lore"
        },
        {
            "_id": "DGvSLoUDiyqdqwn6",
            "data": {
                "description": {
                    "value": ""
                },
                "item": {
                    "value": 0
                },
                "mod": {
                    "value": 10
                },
                "proficient": {
                    "value": 0
                },
                "rules": [],
                "slug": null,
                "source": {
                    "value": ""
                },
                "traits": {
                    "custom": "",
                    "rarity": {
                        "value": "common"
                    },
                    "value": []
                }
            },
            "effects": [],
            "flags": {},
            "img": "systems/pf2e/icons/default-icons/lore.svg",
            "name": "Athletics",
            "sort": 1100000,
            "type": "lore"
        },
        {
            "_id": "rs8cxUHAMnuhP7nv",
            "data": {
                "description": {
                    "value": ""
                },
                "item": {
                    "value": 0
                },
                "mod": {
                    "value": 12
                },
                "proficient": {
                    "value": 0
                },
                "rules": [
                    {
                        "key": "FlatModifier",
                        "label": "In Vegetation",
                        "predicate": {
                            "all": [
                                "terrain:vegetation"
                            ]
                        },
                        "selector": "stealth",
                        "value": 8
                    }
                ],
                "slug": null,
                "source": {
                    "value": ""
                },
                "traits": {
                    "custom": "",
                    "rarity": {
                        "value": "common"
                    },
                    "value": []
                },
                "variants": {
                    "0": {
                        "label": "+20 in vegetation",
                        "options": "terrain:vegetation"
                    }
                }
            },
            "effects": [],
            "flags": {},
            "img": "systems/pf2e/icons/default-icons/lore.svg",
            "name": "Stealth",
            "sort": 1200000,
            "type": "lore"
        }
    ],
    "name": "Mandragora",
    "token": {
        "disposition": -1,
        "height": 1,
        "img": "systems/pf2e/icons/default-icons/npc.svg",
        "name": "Mandragora",
        "width": 1
    },
    "type": "npc"
}
