{
    "_id": "qqQYrXaRJXr7uc4i",
    "data": {
        "ability": {
            "value": ""
        },
        "area": {
            "areaType": "",
            "value": null
        },
        "areasize": {
            "value": ""
        },
        "category": {
            "value": "focus"
        },
        "components": {
            "material": false,
            "somatic": true,
            "verbal": true
        },
        "cost": {
            "value": ""
        },
        "damage": {
            "value": {}
        },
        "description": {
            "value": "<p>You focus on the energies of all members of your animal companion's species, transforming your animal companion into its apex battle form. Your animal companion gains the following statistics and abilities while in its apex form.</p>\n<ul>\n<li>Your animal companion becomes Huge and its attacks have 15-foot reach. It must have enough space to expand into or the spell is lost.</li>\n<li>30 temporary Hit Points.</li>\n<li>Darkvision.</li>\n<li>Your animal companion's attack's damage dice increase by one step, and its attack gains the deadly d12 trait.</li>\n<li>+10-foot status bonus to its Speeds.</li>\n<li>Ignores difficult terrain and greater difficult terrain.</li>\n</ul>\n<p>@Compendium[pf2e.spell-effects.Spell Effect: Apex Companion]{Spell Effect: Apex Companion}</p>"
        },
        "duration": {
            "value": "1 minute"
        },
        "hasCounteractCheck": {
            "value": false
        },
        "level": {
            "value": 10
        },
        "location": {
            "value": ""
        },
        "materials": {
            "value": ""
        },
        "prepared": {
            "value": ""
        },
        "primarycheck": {
            "value": ""
        },
        "range": {
            "value": "30 feet"
        },
        "rules": [],
        "save": {
            "basic": "",
            "value": ""
        },
        "school": {
            "value": "transmutation"
        },
        "secondarycasters": {
            "value": ""
        },
        "secondarycheck": {
            "value": ""
        },
        "source": {
            "value": "Pathfinder #150: Broken Promises"
        },
        "spellType": {
            "value": "utility"
        },
        "sustained": {
            "value": false
        },
        "target": {
            "value": "1 animal companion in your service"
        },
        "time": {
            "value": "2"
        },
        "traditions": {
            "custom": "",
            "value": []
        },
        "traits": {
            "custom": "",
            "rarity": {
                "value": "uncommon"
            },
            "value": [
                "druid",
                "polymorph"
            ]
        }
    },
    "effects": [],
    "flags": {},
    "img": "systems/pf2e/icons/spells/apex-companion.webp",
    "name": "Apex Companion",
    "type": "spell"
}
