{
    "_id": "hghGRzOSzEl4UXdS",
    "data": {
        "ability": {
            "value": ""
        },
        "area": {
            "areaType": "burst",
            "value": "10"
        },
        "autoHeightenLevel": {
            "value": null
        },
        "category": {
            "value": "spell"
        },
        "components": {
            "focus": false,
            "material": false,
            "somatic": true,
            "verbal": true
        },
        "cost": {
            "value": ""
        },
        "damage": {
            "applyMod": false,
            "value": {
                "0": {
                    "applyMod": false,
                    "type": {
                        "subtype": "",
                        "value": "mental"
                    },
                    "value": "2d4"
                },
                "1": {
                    "applyMod": false,
                    "type": {
                        "subtype": "",
                        "value": "negative"
                    },
                    "value": "2d4"
                }
            }
        },
        "description": {
            "value": "<p>Ragged apparitions of the dead rise to stalk the living. They deal 2d4 mental damage and 2d4 negative damage to each living creature in the area, with a basic Will save. Additionally, creatures that critically fail the save are @Compendium[pf2e.conditionitems.Frightened]{Frightened 2} and are @Compendium[pf2e.conditionitems.Fleeing]{Fleeing} for 1 round.</p>\n<p>On subsequent rounds, the first time you Sustain the Spell each round, you can move the area up to 30 feet within the range of the spell. Living creatures in the new area must attempt saves with the same effects as above, except that critically failing doesn't make them flee.</p>\n<hr />\n<p><strong>Heightened (+2)</strong> The mental damage and negative damage each increase by 1d4.</p>"
        },
        "duration": {
            "value": "sustained up to 1 minute"
        },
        "hasCounteractCheck": {
            "value": false
        },
        "level": {
            "value": 5
        },
        "location": {
            "value": ""
        },
        "materials": {
            "value": ""
        },
        "range": {
            "value": "120 feet"
        },
        "rules": [],
        "save": {
            "basic": "basic",
            "value": "will"
        },
        "scaling": {
            "damage": {
                "0": "1d4",
                "1": "1d4"
            },
            "interval": 2
        },
        "school": {
            "value": "necromancy"
        },
        "source": {
            "value": "Pathfinder Secrets of Magic"
        },
        "spellType": {
            "value": "save"
        },
        "sustained": {
            "value": false
        },
        "target": {
            "value": ""
        },
        "time": {
            "value": "2"
        },
        "traditions": {
            "custom": "",
            "value": [
                "arcane",
                "divine",
                "occult"
            ]
        },
        "traits": {
            "custom": "",
            "rarity": {
                "value": "common"
            },
            "value": [
                "emotion",
                "fear",
                "mental"
            ]
        }
    },
    "effects": [],
    "flags": {},
    "img": "systems/pf2e/icons/spells/invoke-spirits.webp",
    "name": "Invoke Spirits",
    "type": "spell"
}
