{
    "_id": "lg73SvJZno1ypPAj",
    "data": {
        "ability": {
            "value": ""
        },
        "area": {
            "areaType": "",
            "value": ""
        },
        "autoHeightenLevel": {
            "value": null
        },
        "category": {
            "value": "spell"
        },
        "components": {
            "focus": false,
            "material": false,
            "somatic": true,
            "verbal": true
        },
        "cost": {
            "value": ""
        },
        "damage": {
            "value": {}
        },
        "description": {
            "value": "<p>You take a deep breath as you survey a social situation, showing courtesy to all around you as your intuition swiftly picks up clues about social contexts and unspoken assumptions of behavior. Your body language subconsciously changes to take advantage of this information and use it in your own interactions with those creatures.</p>\n<p>As part of Casting this Spell, you Recall Knowledge using Society to gain information about the immediate social situation. You also gain a +1 status bonus on your next Diplomacy check to Make an Impression on those creatures present when you cast this spell, as long as the check occurs during the duration of the spell. You can read the air only once in a given social situation; casting it again has no effect.</p>\n<p>@Compendium[pf2e.spell-effects.Spell Effect: Read the Air]{Spell Effect: Read the Air}</p>"
        },
        "duration": {
            "value": "1 minute"
        },
        "hasCounteractCheck": {
            "value": false
        },
        "level": {
            "value": 1
        },
        "location": {
            "value": ""
        },
        "materials": {
            "value": ""
        },
        "range": {
            "value": ""
        },
        "rules": [],
        "save": {
            "basic": "",
            "value": ""
        },
        "school": {
            "value": "divination"
        },
        "source": {
            "value": "Pathfinder Secrets of Magic"
        },
        "spellType": {
            "value": "utility"
        },
        "sustained": {
            "value": false
        },
        "target": {
            "value": ""
        },
        "time": {
            "value": "2"
        },
        "traditions": {
            "custom": "",
            "value": [
                "divine",
                "occult"
            ]
        },
        "traits": {
            "custom": "",
            "rarity": {
                "value": "common"
            },
            "value": [
                "cantrip"
            ]
        }
    },
    "effects": [],
    "flags": {},
    "img": "systems/pf2e/icons/spells/read-the-air.webp",
    "name": "Read the Air",
    "type": "spell"
}
