{
    "_id": "zTN6zuruDUKOea6h",
    "data": {
        "ability": {
            "value": ""
        },
        "area": {
            "areaType": "",
            "value": ""
        },
        "autoHeightenLevel": {
            "value": null
        },
        "category": {
            "value": "focus"
        },
        "components": {
            "focus": false,
            "material": false,
            "somatic": true,
            "verbal": false
        },
        "cost": {
            "value": ""
        },
        "damage": {
            "value": {}
        },
        "description": {
            "value": "<p>You create a wave of water that you ride, banking around obstacles and surfing to higher ground. You move up to 35 feet, raising yourself up to 5 feet above the ground. (You can avoid many types of difficult terrain in this way.) You must end your movement on an unoccupied space where you have solid footing. This movement isn't a Stride, but you measure the distance in a similar way, and it still triggers reactions caused by movement. You can't transport anyone else with you.</p>\n<hr />\n<p><strong>Heightened (+2)</strong> Increase the distance you move by 5 feet and the maximum height traveled above the ground by 5 feet.</p>"
        },
        "duration": {
            "value": ""
        },
        "hasCounteractCheck": {
            "value": false
        },
        "level": {
            "value": 1
        },
        "location": {
            "value": ""
        },
        "materials": {
            "value": ""
        },
        "prepared": {
            "value": ""
        },
        "range": {
            "value": "30 feet"
        },
        "rules": [],
        "save": {
            "basic": "",
            "value": ""
        },
        "school": {
            "value": "conjuration"
        },
        "source": {
            "value": "Pathfinder Secrets of Magic"
        },
        "spellType": {
            "value": "utility"
        },
        "sustained": {
            "value": false
        },
        "target": {
            "value": ""
        },
        "time": {
            "value": "1"
        },
        "traditions": {
            "value": []
        },
        "traits": {
            "custom": "",
            "rarity": {
                "value": "uncommon"
            },
            "value": [
                "move",
                "water"
            ]
        }
    },
    "effects": [],
    "flags": {},
    "img": "systems/pf2e/icons/spells/rising-surf.webp",
    "name": "Rising Surf",
    "type": "spell"
}
