{
    "_id": "yHujiDQPdtXW797e",
    "data": {
        "ability": {
            "value": ""
        },
        "area": {
            "areaType": "",
            "value": null
        },
        "areasize": {
            "value": ""
        },
        "category": {
            "value": "spell"
        },
        "components": {
            "material": false,
            "somatic": true,
            "verbal": true
        },
        "cost": {
            "value": ""
        },
        "damage": {
            "value": {}
        },
        "description": {
            "value": "<p>You form a spiritual link with another creature, taking in its pain. When you Cast this Spell and at the start of each of your turns, if the target is below maximum Hit Points, it regains 2 Hit Points (or the difference between its current and maximum Hit Points, if that's lower). You lose as many Hit Points as the target regained.</p>\n<p>This is a spiritual transfer, so no effects apply that would increase the Hit Points the target regains or decrease the Hit Points you lose. This transfer also ignores any temporary Hit Points you or the target have. Since this effect doesn't involve positive or negative energy, spirit link works even if you or the target is undead. While the duration persists, you gain no benefit from regeneration or fast healing. You can Dismiss this spell, and if you're ever at 0 Hit Points, spirit link ends automatically.</p>\n<hr />\n<p><strong>Heightened (+1)</strong> The number of Hit Points transferred each time increases by 2.</p>"
        },
        "duration": {
            "value": "10 minutes"
        },
        "hasCounteractCheck": {
            "value": false
        },
        "level": {
            "value": 1
        },
        "location": {
            "value": ""
        },
        "materials": {
            "value": ""
        },
        "prepared": {
            "value": ""
        },
        "primarycheck": {
            "value": ""
        },
        "range": {
            "value": "30 feet"
        },
        "rules": [],
        "save": {
            "basic": "",
            "value": ""
        },
        "school": {
            "value": "necromancy"
        },
        "secondarycasters": {
            "value": ""
        },
        "secondarycheck": {
            "value": ""
        },
        "source": {
            "value": "Pathfinder Core Rulebook"
        },
        "spellType": {
            "value": "heal"
        },
        "sustained": {
            "value": false
        },
        "target": {
            "value": "1 willing creature"
        },
        "time": {
            "value": "2"
        },
        "traditions": {
            "value": [
                "divine",
                "occult"
            ]
        },
        "traits": {
            "custom": "",
            "rarity": {
                "value": "common"
            },
            "value": [
                "healing"
            ]
        }
    },
    "effects": [],
    "flags": {},
    "img": "systems/pf2e/icons/spells/spirit-link.webp",
    "name": "Spirit Link",
    "type": "spell"
}
