{
    "_id": "7gGcpQMqnZhBDZLI",
    "data": {
        "actionCategory": {
            "value": "interaction"
        },
        "actionType": {
            "value": "passive"
        },
        "actions": {
            "value": null
        },
        "description": {
            "value": "<p>You descend from a line of anadi who worked to perfect their transformation magic, allowing them to integrate into a wider variety of cultures. Choose a common, Medium humanoid ancestry. Your human form is replaced with a form that matches this choice. You also gain the @Compendium[pf2e.feats-srd.Adopted Ancestry]{Adopted Ancestry} feat for your chosen humanoid ancestry.</p>"
        },
        "featType": {
            "value": "heritage"
        },
        "level": {
            "value": 1
        },
        "location": "",
        "prerequisites": {
            "value": []
        },
        "rules": [],
        "source": {
            "value": ""
        },
        "traits": {
            "custom": "",
            "rarity": {
                "value": "common"
            },
            "value": [
                "anadi",
                "heritage"
            ]
        }
    },
    "effects": [],
    "flags": {},
    "img": "systems/pf2e/icons/default-icons/feat.svg",
    "name": "Adaptive Anadi",
    "type": "feat"
}
