{
    "_id": "UaD5VDoFlILEmbyz",
    "data": {
        "actionCategory": {
            "value": ""
        },
        "actionType": {
            "value": "passive"
        },
        "actions": {
            "value": null
        },
        "description": {
            "value": "<p>You are the scion of a vampire, half living and half undead, gifted with uncanny charm and grace, a bloodless pallor, and elongated incisors. You gain the dhampir trait, in addition to the traits from your ancestry. You have the negative healing ability, which means you are harmed by positive damage and healed by negative effects as if you were undead. You also gain @Compendium[pf2e.ancestryfeatures.Low-Light Vision]{Low-Light Vision}, or you gain @Compendium[pf2e.ancestryfeatures.Darkvision]{Darkvision} if your ancestry already has low-light vision. You can choose from dhampir feats and feats from your ancestry whenever you gain an ancestry feat.</p>"
        },
        "featType": {
            "value": "heritage"
        },
        "level": {
            "value": 1
        },
        "location": "",
        "prerequisites": {
            "value": []
        },
        "rules": [
            {
                "key": "ActiveEffectLike",
                "mode": "override",
                "path": "data.attributes.hp.negativeHealing",
                "value": true
            },
            {
                "key": "Sense",
                "selector": "lowLightVision"
            },
            {
                "key": "Sense",
                "predicate": {
                    "all": [
                        "self:low-light-vision:from-ancestry"
                    ]
                },
                "selector": "darkvision"
            }
        ],
        "source": {
            "value": "Pathfinder Advanced Player's Guide"
        },
        "traits": {
            "custom": "",
            "rarity": {
                "value": "uncommon"
            },
            "value": [
                "dhampir",
                "versatile heritage"
            ]
        }
    },
    "effects": [],
    "flags": {},
    "img": "systems/pf2e/icons/features/ancestry/dhampir.webp",
    "name": "Dhampir",
    "type": "feat"
}
