{
    "_id": "87h0jepQuzIbN7jN",
    "data": {
        "actionCategory": {
            "value": ""
        },
        "actionType": {
            "value": "passive"
        },
        "actions": {
            "value": null
        },
        "description": {
            "value": "<p>Your body was made from fungi that grows in the shade of caves and trees, and you are at home in dark caverns and warrens. You gain @Compendium[pf2e.ancestryfeatures.Darkvision]{Darkvision}. You lose the plant trait and gain the fungus trait.</p>"
        },
        "featType": {
            "value": "heritage"
        },
        "level": {
            "value": 1
        },
        "location": "",
        "prerequisites": {
            "value": []
        },
        "rules": [
            {
                "add": [
                    "fungus"
                ],
                "key": "ActorTraits",
                "remove": [
                    "plant"
                ]
            },
            {
                "key": "Sense",
                "selector": "darkvision"
            }
        ],
        "source": {
            "value": ""
        },
        "traits": {
            "custom": "",
            "rarity": {
                "value": "common"
            },
            "selected": {
                "leshy": "Leshy"
            },
            "value": [
                "leshy"
            ]
        }
    },
    "effects": [],
    "flags": {},
    "img": "systems/pf2e/icons/features/ancestry/fungus-leshy.webp",
    "name": "Fungus Leshy",
    "type": "feat"
}
