{
    "_id": "gfXSF1TafBAmZo2u",
    "data": {
        "actionCategory": {
            "value": ""
        },
        "actionType": {
            "value": "passive"
        },
        "actions": {
            "value": null
        },
        "description": {
            "value": "<p>You have the hindquarters of a cricket and adore art and music. Your cricket legs grant you a +2 circumstance bonus on Athletics checks to High Jump or Long Jump, and you gain <em>@Compendium[pf2e.spells-srd.Ghost Sound]{Ghost Sound}</em> as a primal innate cantrip.</p>"
        },
        "featType": {
            "value": "heritage"
        },
        "level": {
            "value": 1
        },
        "location": "",
        "prerequisites": {
            "value": []
        },
        "rules": [],
        "source": {
            "value": ""
        },
        "traits": {
            "custom": "",
            "rarity": {
                "value": "common"
            },
            "value": [
                "sprite"
            ]
        }
    },
    "effects": [],
    "flags": {},
    "img": "systems/pf2e/icons/default-icons/feat.svg",
    "name": "Grig",
    "type": "feat"
}
