{
    "_id": "Cv7BOjuziOQ0PO9r",
    "data": {
        "actionCategory": {
            "value": ""
        },
        "actionType": {
            "value": "passive"
        },
        "actions": {
            "value": null
        },
        "description": {
            "value": "<p>You're made primarily of soft metals, such as tin or silver, and your life force dwells within an exceptional array of clockworks deep in your body. Provided you wind metal tabs on your body a few times each day, you don't need food or water to survive. You must still breathe to ventilate your internal mechanisms and sleep to give your mechanisms rest, just like other poppets.</p>"
        },
        "featType": {
            "value": "heritage"
        },
        "level": {
            "value": 0
        },
        "location": "",
        "prerequisites": {
            "value": []
        },
        "rules": [],
        "source": {
            "value": "Pathfinder Lost Omens: The Grand Bazaar"
        },
        "traits": {
            "custom": "",
            "rarity": {
                "value": "common"
            },
            "value": [
                "poppet"
            ]
        }
    },
    "effects": [],
    "flags": {},
    "img": "systems/pf2e/icons/default-icons/feat.svg",
    "name": "Windup Poppet",
    "type": "feat"
}
