{
    "_id": "Nadcb08xcTAoPBEX",
    "data": {
        "actionCategory": {
            "value": ""
        },
        "actionType": {
            "value": "passive"
        },
        "actions": {
            "value": null
        },
        "description": {
            "value": "<p>Heroic Membership: Your adventures have earned you a unique place in a powerful organization. Check the box next to one of the following options and cross the other off your Chronicle Sheet.</p>\n<p><strong>□ Lacunafex Membership:</strong> You have been adopted into the Lacunafex spy network and have access to the following feats and spells:</p>\n<ul>\n<li>Feats: @Compendium[pf2e.feats-srd.Different Worlds]{Different Worlds}, @Compendium[pf2e.feats-srd.Reveal Machinations]{Reveal Machinations}, @Compendium[pf2e.feats-srd.Silver's Refrain]{Silver's Refrain}, @Compendium[pf2e.feats-srd.Tweak Appearances]{Tweak Appearances}.</li>\n<li>Spells: <em>@Compendium[pf2e.spells-srd.Exchange Image]{Exchange Image}</em>, <em>@Compendium[pf2e.spells-srd.Join Pasts]{Join Pasts}</em>, <em>@Compendium[pf2e.spells-srd.Silver's Refrain]{Silver's Refrain}</em>, <em>@Compendium[pf2e.spells-srd.Spiritual Anamnesis]{Spiritual Anamnesis}</em>.</li>\n</ul>\n<p><strong>□ Bellflower Membership:</strong> You are a member of the Bellflower Network and gain access to the @Compendium[pf2e.archetypes.Bellflower Tiller]{Bellflower Tiller} archetype, its associated feats, and the @Compendium[pf2e.equipment-srd.Bellflower Toolbelt]{Bellflower Toolbelt}.</p>"
        },
        "featType": {
            "value": "pfsboon"
        },
        "identified": {
            "value": true
        },
        "level": {
            "value": 0
        },
        "prerequisites": {
            "value": []
        },
        "rules": [],
        "source": {
            "value": ""
        },
        "traits": {
            "custom": "",
            "rarity": {
                "value": "common"
            },
            "selected": {},
            "value": []
        }
    },
    "effects": [],
    "flags": {},
    "img": "systems/pf2e/icons/default-icons/mystery-man.webp",
    "name": "AoA #147: Boon A - Heroic Membership",
    "type": "feat"
}
