{
    "_id": "ZZvIzyH6SwyVkEYm",
    "data": {
        "actionCategory": {
            "value": ""
        },
        "actionType": {
            "value": "passive"
        },
        "actions": {
            "value": null
        },
        "description": {
            "value": "<p><strong>[Advanced]</strong></p>\n<p><strong>Effect</strong>: You have survived exposure to numerous planar forces that would have warped or obliterated a lesser being. As long as you are at least 7th level and a master in Survival, you can slot this boon to gain the benefits of the @Compendium[pf2e.feats-srd.Planar Survival]{Planar Survival} skill feat.</p>"
        },
        "featType": {
            "value": "pfsboon"
        },
        "level": {
            "value": 0
        },
        "prerequisites": {
            "value": []
        },
        "rules": [],
        "source": {
            "value": ""
        },
        "traits": {
            "custom": "",
            "rarity": {
                "value": "common"
            },
            "selected": {},
            "value": []
        }
    },
    "effects": [],
    "flags": {},
    "img": "systems/pf2e/icons/default-icons/mystery-man.webp",
    "name": "S1-21 - Maze Walker",
    "type": "feat"
}
