{
    "_id": "skz8n8N9GEQY2c90",
    "data": {
        "abilities": {
            "cha": {
                "mod": -5
            },
            "con": {
                "mod": 6
            },
            "dex": {
                "mod": -1
            },
            "int": {
                "mod": -5
            },
            "str": {
                "mod": 6
            },
            "wis": {
                "mod": 0
            }
        },
        "attributes": {
            "ac": {
                "details": "",
                "value": 29
            },
            "allSaves": {
                "value": ""
            },
            "hp": {
                "details": "",
                "max": 175,
                "temp": 0,
                "value": 175
            },
            "initiative": {
                "ability": "perception"
            },
            "perception": {
                "value": 16
            },
            "shield": {
                "ac": 0,
                "brokenThreshold": 0,
                "hardness": 0,
                "max": 0,
                "value": 0
            },
            "speed": {
                "otherSpeeds": [],
                "value": "20"
            }
        },
        "details": {
            "alignment": {
                "value": "N"
            },
            "blurb": "",
            "creatureType": "Construct",
            "level": {
                "value": 10
            },
            "privateNotes": "",
            "publicNotes": "<p>Traditionally, clay golems are crafted in the image of a deity and used as guardians of tombs or sacred crypts. Clay golems have the power to lay curses upon their victims as punishment for intrusion, leading many to believe that these oft-ancient constructs have a touch of the divine to them. While this idea has little basis in reality, superstitious folk still tread lightly around statues that resemble clay golems even in the slightest.</p>\n<p>The animating force within a clay golem is unusually unstable, making the golem prone to entering a berserk frenzy when damaged. Entire treasuries have been totally ruined as a result of a rampaging clay golem, so crafters do well to make sure their golems are maintained and in good working order-or otherwise place them on the other side of the door from the treasures they wish to protect.</p>\n<hr />\n<p>Crafted of base materials and then magically animated into a powerful guardian, the legendary golem is a living construct that mindlessly obeys its creator's commands-often continuing to do so for years or even centuries after its creator's death. There exist two known methods of animating a golem. The traditional method involves harvesting and implanting an elemental soul or essence within the newly crafted host statue, a procedure seen as vile and blasphemous to those who value the sanctity of the soul; evil or amoral golem crafters tend to prefer this method. The other, less disreputable technique involves siphoning pure positive energy into the statue to artificially imitate the creation of a soul. The result does not give the golem a true soul and is generally a more costly and time-consuming method of creation. Regardless of the method used, the resulting golem functions the same. A golem's unique animating force leaves it susceptible to certain forms of magic, but apart from these few weaknesses, it is impervious to magic and difficult to damage with weapons.</p>\n<p>Golems work best in play as foes to vanquish rather than allies to accompany player characters on adventures. The process of creating a golem is time-consuming, expensive, and difficult, and only the most talented spellcasters or artisans can even hope to accomplish such an undertaking. While certain magical texts-so-called \"golem manuals\"-are said to aid golems crafters, for the most part the creation of a golem should be something left in the hands of the Game Master.</p>\n<p>Golems have components that can be harvested as trophies or magical components; the value depends on the golem in question. Examples of components that can be harvested from golems are listed in the sidebars.</p>",
            "source": {
                "author": "",
                "value": "Pathfinder Bestiary"
            }
        },
        "resources": {},
        "saves": {
            "fortitude": {
                "saveDetail": "",
                "value": 23
            },
            "reflex": {
                "saveDetail": "",
                "value": 16
            },
            "will": {
                "saveDetail": "",
                "value": 17
            }
        },
        "traits": {
            "ci": [],
            "di": {
                "custom": "Magic (see Golem Antimagic)",
                "value": [
                    "acid",
                    "bleed",
                    "death-effects",
                    "disease",
                    "doomed",
                    "drained",
                    "fatigued",
                    "healing",
                    "mental",
                    "necromancy",
                    "nonlethal-attacks",
                    "paralyzed",
                    "poison",
                    "sickened",
                    "unconscious"
                ]
            },
            "dr": [
                {
                    "exceptions": "adamantine",
                    "type": "physical",
                    "value": 10
                }
            ],
            "dv": [],
            "languages": {
                "custom": "",
                "selected": [],
                "value": []
            },
            "rarity": {
                "value": "uncommon"
            },
            "senses": {
                "value": "darkvision"
            },
            "size": {
                "value": "lg"
            },
            "traits": {
                "custom": "",
                "value": [
                    "construct",
                    "golem",
                    "mindless"
                ]
            }
        }
    },
    "effects": [],
    "flags": {},
    "img": "systems/pf2e/icons/default-icons/npc.svg",
    "items": [
        {
            "_id": "JzIDoWltig01Ezsi",
            "data": {
                "attack": {
                    "value": ""
                },
                "attackEffects": {
                    "custom": "",
                    "value": [
                        "cursed-wound"
                    ]
                },
                "bonus": {
                    "value": 24
                },
                "damageRolls": {
                    "2rulpnuihi7eiz58jgg1": {
                        "damage": "2d10+12",
                        "damageType": "bludgeoning"
                    }
                },
                "description": {
                    "value": ""
                },
                "rules": [],
                "slug": null,
                "source": {
                    "value": ""
                },
                "traits": {
                    "custom": "",
                    "rarity": {
                        "value": "common"
                    },
                    "value": [
                        "magical",
                        "reach-10"
                    ]
                },
                "weaponType": {
                    "value": "melee"
                }
            },
            "effects": [],
            "flags": {},
            "img": "systems/pf2e/icons/default-icons/melee.svg",
            "name": "Fist",
            "sort": 100000,
            "type": "melee"
        },
        {
            "_id": "EI3OMbX3GaC67Bnt",
            "data": {
                "actionCategory": {
                    "value": "interaction"
                },
                "actionType": {
                    "value": "passive"
                },
                "actions": {
                    "value": null
                },
                "description": {
                    "value": "<p>@Localize[PF2E.NPC.Abilities.Glossary.Darkvision]</p>"
                },
                "requirements": {
                    "value": ""
                },
                "rules": [],
                "slug": "darkvision",
                "source": {
                    "value": ""
                },
                "traits": {
                    "custom": "",
                    "rarity": {
                        "value": "common"
                    },
                    "value": []
                },
                "trigger": {
                    "value": ""
                },
                "weapon": {
                    "value": ""
                }
            },
            "effects": [],
            "flags": {
                "core": {
                    "sourceId": "Compendium.pf2e.bestiary-ability-glossary-srd.qCCLZhnp2HhP3Ex6"
                }
            },
            "img": "systems/pf2e/icons/actions/Passive.webp",
            "name": "Darkvision",
            "sort": 200000,
            "type": "action"
        },
        {
            "_id": "MTJ6P2pU1320fO7f",
            "data": {
                "actionCategory": {
                    "value": "defensive"
                },
                "actionType": {
                    "value": "passive"
                },
                "actions": {
                    "value": null
                },
                "description": {
                    "value": "<p>A severely damaged clay golem has a chance of going berserk. If it has 50 or fewer Hit Points at the start of its turn, the golem must succeed at a <span data-pf2-check=\"flat\" data-pf2-dc=\"5\" data-pf2-label=\"Berserk DC\" data-pf2-show-dc=\"gm\">flat check</span> or go berserk. A berserk golem wildly attacks the nearest living creature, or the nearest object if no creatures are nearby.</p>"
                },
                "requirements": {
                    "value": ""
                },
                "rules": [],
                "slug": null,
                "source": {
                    "value": ""
                },
                "traits": {
                    "custom": "",
                    "rarity": {
                        "value": "common"
                    },
                    "value": []
                },
                "trigger": {
                    "value": ""
                },
                "weapon": {
                    "value": ""
                }
            },
            "effects": [],
            "flags": {},
            "img": "systems/pf2e/icons/actions/Passive.webp",
            "name": "Berserk",
            "sort": 300000,
            "type": "action"
        },
        {
            "_id": "xOGJ7uK7SF5xcrH2",
            "data": {
                "actionCategory": {
                    "value": "defensive"
                },
                "actionType": {
                    "value": "passive"
                },
                "actions": {
                    "value": null
                },
                "description": {
                    "value": "<p>A <em>@Compendium[pf2e.spells-srd.Disintegrate]{Disintegrate}</em> spell affects the golem but deals half the normal amount of damage and causes the golem to become@Compendium[pf2e.conditionitems.Slowed]{Slowed 2} for 1 round.</p>"
                },
                "requirements": {
                    "value": ""
                },
                "rules": [],
                "slug": null,
                "source": {
                    "value": ""
                },
                "traits": {
                    "custom": "",
                    "rarity": {
                        "value": "common"
                    },
                    "value": []
                },
                "trigger": {
                    "value": ""
                },
                "weapon": {
                    "value": ""
                }
            },
            "effects": [],
            "flags": {},
            "img": "systems/pf2e/icons/actions/Passive.webp",
            "name": "Vulnerable to Disintegrate",
            "sort": 400000,
            "type": "action"
        },
        {
            "_id": "d9nsBoLgYoGWORv2",
            "data": {
                "actionCategory": {
                    "value": "defensive"
                },
                "actionType": {
                    "value": "passive"
                },
                "actions": {
                    "value": null
                },
                "description": {
                    "value": "<p>harmed by cold and water ([[/r {5d10}]]{5d10 damage}, [[/r {2d6}]]{2d6 damage} from areas or persistent damage); healed by acid (area [[/r {2d6}[healing]]]{2d6 Hit Points}); slowed by earth</p>\n<hr />\n<p>A golem is immune to spells and magical abilities other than its own, but each type of golem is affected by a few types of magic in special ways. These exceptions are listed in shortened form in the golem's stat block, with the full rules appearing here. If an entry lists multiple types (such as \"cold and water\"), either type of spell can affect the golem.</p>\n<ul>\n<li><strong>Harmed By</strong> Any magic of this type that targets the golem causes it to take the listed amount of damage (this damage has no type) instead of the usual effect. If the golem starts its turn in an area of magic of this type or is affected by a persistent effect of the appropriate type, it takes the damage listed in the parenthetical.</li>\n<li><strong>Healed By</strong> Any magic of this type that targets the golem makes the golem lose the slowed condition and gain HP equal to half the damage the spell would have dealt. If the golem starts its turn in an area of this type of magic, it gains the HP listed in the parenthetical.</li>\n<li><strong>Slowed By</strong> Any magic of this type that targets the golem causes it to be @Compendium[pf2e.conditionitems.Slowed]{Slowed 1} for [[/br 2d6 #rounds]]{2d6 rounds} instead of the usual effect. If the golem starts its turn in an area of this type of magic, it's slowed 1 for that round.</li>\n<li><strong>Vulnerable To</strong> Each golem is vulnerable to one or more specific spells, with the effects described in its stat block.</li>\n</ul>"
                },
                "requirements": {
                    "value": ""
                },
                "rules": [],
                "slug": "golem-golem-antimagic",
                "source": {
                    "value": "Pathfinder Bestiary"
                },
                "traits": {
                    "custom": "",
                    "rarity": {
                        "value": "common"
                    },
                    "value": []
                },
                "trigger": {
                    "value": ""
                },
                "weapon": {
                    "value": ""
                }
            },
            "effects": [],
            "flags": {
                "core": {
                    "sourceId": "Compendium.pf2e.bestiary-family-ability-glossary.r34QDwKiWZoVymJa"
                }
            },
            "img": "systems/pf2e/icons/actions/Passive.webp",
            "name": "Golem Antimagic",
            "sort": 500000,
            "type": "action"
        },
        {
            "_id": "g2OkSiICf1gw8aes",
            "data": {
                "actionCategory": {
                    "value": "defensive"
                },
                "actionType": {
                    "value": "free"
                },
                "actions": {
                    "value": null
                },
                "description": {
                    "value": "<div data-visibility=\"gm\">\n<p><strong>Frequency</strong> Once per day</p>\n<p><strong>Trigger</strong> The clay golem's turn begins. It can't trigger this free action on the first turn of combat.</p>\n</div>\n<p><strong>Effect</strong> The clay golem becomes @Compendium[pf2e.conditionitems.Quickened]{Quickened} for 1 minute.</p>"
                },
                "requirements": {
                    "value": ""
                },
                "rules": [],
                "slug": null,
                "source": {
                    "value": ""
                },
                "traits": {
                    "custom": "",
                    "rarity": {
                        "value": "common"
                    },
                    "value": [
                        "divine",
                        "transmutation"
                    ]
                },
                "trigger": {
                    "value": ""
                },
                "weapon": {
                    "value": ""
                }
            },
            "effects": [],
            "flags": {},
            "img": "systems/pf2e/icons/actions/FreeAction.webp",
            "name": "Quicken",
            "sort": 600000,
            "type": "action"
        },
        {
            "_id": "zNcTKoBJlpFDMTec",
            "data": {
                "actionCategory": {
                    "value": "offensive"
                },
                "actionType": {
                    "value": "action"
                },
                "actions": {
                    "value": 1
                },
                "description": {
                    "value": "<p data-visibility=\"gm\"><strong>Requirement</strong> The golem is berserk.</p>\n<p><strong>Effect</strong> The clay golem Strikes with its fist at a -1 circumstance penalty. If it hits, it deals an additional [[/r {1d8}[bludgeoning]]]{1d6 bludgeoning damage} and knocks the target @Compendium[pf2e.conditionitems.Prone]{Prone}.</p>"
                },
                "requirements": {
                    "value": ""
                },
                "rules": [
                    {
                        "key": "ToggleProperty",
                        "property": "flags.pf2e.rollOptions.all.berserkSlam"
                    },
                    {
                        "key": "FlatModifier",
                        "predicate": {
                            "all": [
                                "berserkSlam"
                            ]
                        },
                        "selector": "fist-attack",
                        "type": "circumstance",
                        "value": -1
                    },
                    {
                        "damageType": "bludgeoning",
                        "diceNumber": 1,
                        "dieSize": "d8",
                        "key": "DamageDice",
                        "predicate": {
                            "all": [
                                "berserkSlam"
                            ]
                        },
                        "selector": "fist-damage"
                    },
                    {
                        "key": "Note",
                        "predicate": {
                            "all": [
                                "berserkSlam"
                            ]
                        },
                        "selector": "fist-attack",
                        "text": "<p data-visibility='gm'>If the attack hits, the target is knocked @Compendium[pf2e.conditionitems.Prone]{Prone}</p>"
                    }
                ],
                "slug": null,
                "source": {
                    "value": ""
                },
                "traits": {
                    "custom": "",
                    "rarity": {
                        "value": "common"
                    },
                    "value": []
                },
                "trigger": {
                    "value": ""
                },
                "weapon": {
                    "value": ""
                }
            },
            "effects": [],
            "flags": {},
            "img": "systems/pf2e/icons/actions/OneAction.webp",
            "name": "Berserk Slam",
            "sort": 700000,
            "type": "action"
        },
        {
            "_id": "gQ7hVeDi4X11cJlc",
            "data": {
                "actionCategory": {
                    "value": "offensive"
                },
                "actionType": {
                    "value": "passive"
                },
                "actions": {
                    "value": null
                },
                "description": {
                    "value": "<p>A creature hit by the clay golem's fist must succeed at a <span data-pf2-check=\"fortitude\" data-pf2-dc=\"29\" data-pf2-traits=\"divine,curse,necromancy\" data-pf2-label=\"Cursed Wound DC\" data-pf2-show-dc=\"gm\">Fortitude</span> save or be cursed until healed to its maximum HP. The cursed creature can't regain HP except via magic, and anyone casting a spell to heal the creature must succeed at a DC 29 counteract check or the healing has no effect. The golem's counteract level is equal to its creature level.</p>"
                },
                "requirements": {
                    "value": ""
                },
                "rules": [],
                "slug": null,
                "source": {
                    "value": ""
                },
                "traits": {
                    "custom": "",
                    "rarity": {
                        "value": "common"
                    },
                    "value": [
                        "divine",
                        "curse",
                        "necromancy"
                    ]
                },
                "trigger": {
                    "value": ""
                },
                "weapon": {
                    "value": ""
                }
            },
            "effects": [],
            "flags": {},
            "img": "systems/pf2e/icons/actions/Passive.webp",
            "name": "Cursed Wound",
            "sort": 800000,
            "type": "action"
        },
        {
            "_id": "8EHct64wNH1fUwMi",
            "data": {
                "description": {
                    "value": ""
                },
                "item": {
                    "value": 0
                },
                "mod": {
                    "value": 24
                },
                "proficient": {
                    "value": 0
                },
                "rules": [],
                "slug": null,
                "source": {
                    "value": ""
                },
                "traits": {
                    "custom": "",
                    "rarity": {
                        "value": "common"
                    },
                    "value": []
                }
            },
            "effects": [],
            "flags": {},
            "img": "systems/pf2e/icons/default-icons/lore.svg",
            "name": "Athletics",
            "sort": 900000,
            "type": "lore"
        }
    ],
    "name": "Clay Golem",
    "token": {
        "disposition": -1,
        "height": 2,
        "img": "systems/pf2e/icons/default-icons/npc.svg",
        "name": "Clay Golem",
        "width": 2
    },
    "type": "npc"
}
