{
    "_id": "XrmHgbKgcHDi4OnK",
    "data": {
        "abilities": {
            "cha": {
                "mod": 3
            },
            "con": {
                "mod": 0
            },
            "dex": {
                "mod": 4
            },
            "int": {
                "mod": -2
            },
            "str": {
                "mod": -5
            },
            "wis": {
                "mod": 2
            }
        },
        "attributes": {
            "ac": {
                "details": "",
                "value": 20
            },
            "allSaves": {
                "value": ""
            },
            "hp": {
                "details": "",
                "max": 40,
                "temp": 0,
                "value": 40
            },
            "initiative": {
                "ability": "perception"
            },
            "perception": {
                "value": 10
            },
            "shield": {
                "ac": 0,
                "brokenThreshold": 0,
                "hardness": 0,
                "max": 0,
                "value": 0
            },
            "speed": {
                "otherSpeeds": [
                    {
                        "label": "Fly",
                        "type": "fly",
                        "value": "30"
                    }
                ],
                "value": "0"
            }
        },
        "details": {
            "alignment": {
                "value": "CE"
            },
            "blurb": "",
            "creatureType": "Undead",
            "level": {
                "value": 4
            },
            "privateNotes": "",
            "publicNotes": "<p>The mysterious undead known as shadows lurk in dark places and feed on those who stray too far from the light. Those who parley with shadows, typically by keeping them at bay with a glowing weapon, may learn great secrets, for they are ideal spies.</p>",
            "source": {
                "value": "Pathfinder Bestiary"
            }
        },
        "resources": {},
        "saves": {
            "fortitude": {
                "saveDetail": "",
                "value": 8
            },
            "reflex": {
                "saveDetail": "",
                "value": 14
            },
            "will": {
                "saveDetail": "",
                "value": 12
            }
        },
        "traits": {
            "attitude": {
                "value": "hostile"
            },
            "ci": [],
            "di": {
                "custom": "",
                "value": [
                    "death-effects",
                    "disease",
                    "paralyzed",
                    "poison",
                    "precision",
                    "unconscious"
                ]
            },
            "dr": [
                {
                    "exceptions": "except force, ghost touch, and positive; double resistance vs. non-magical",
                    "label": "All",
                    "type": "all",
                    "value": "5"
                }
            ],
            "dv": [
                {
                    "label": "Light Vulnerability",
                    "type": "light vulnerability"
                }
            ],
            "languages": {
                "custom": "",
                "selected": [],
                "value": [
                    "necril"
                ]
            },
            "rarity": {
                "value": "common"
            },
            "senses": {
                "value": "darkvision"
            },
            "size": {
                "value": "med"
            },
            "traits": {
                "custom": "",
                "value": [
                    "incorporeal",
                    "undead"
                ]
            }
        }
    },
    "effects": [],
    "flags": {},
    "img": "systems/pf2e/icons/default-icons/npc.svg",
    "items": [
        {
            "_id": "x47iDfIE9albveGl",
            "data": {
                "attack": {
                    "value": ""
                },
                "attackEffects": {
                    "value": []
                },
                "bonus": {
                    "value": 15
                },
                "damageRolls": {
                    "0": {
                        "damage": "2d6+3",
                        "damageType": "negative"
                    }
                },
                "description": {
                    "value": ""
                },
                "rules": [],
                "slug": null,
                "source": {
                    "value": ""
                },
                "traits": {
                    "custom": "",
                    "rarity": {
                        "value": "common"
                    },
                    "value": [
                        "finesse",
                        "magical"
                    ]
                },
                "weaponType": {
                    "value": "melee"
                }
            },
            "effects": [],
            "flags": {},
            "img": "systems/pf2e/icons/default-icons/melee.svg",
            "name": "Shadow Hand",
            "sort": 100000,
            "type": "melee"
        },
        {
            "_id": "FNXAa5xuF4BZP4DU",
            "data": {
                "actionCategory": {
                    "value": "interaction"
                },
                "actionType": {
                    "value": "passive"
                },
                "actions": {
                    "value": null
                },
                "description": {
                    "value": "<p>@Localize[PF2E.NPC.Abilities.Glossary.Darkvision]</p>"
                },
                "requirements": {
                    "value": ""
                },
                "rules": [],
                "slug": "darkvision",
                "source": {
                    "value": ""
                },
                "traits": {
                    "custom": "",
                    "rarity": {
                        "value": "common"
                    },
                    "value": []
                },
                "trigger": {
                    "value": ""
                },
                "weapon": {
                    "value": ""
                }
            },
            "effects": [],
            "flags": {
                "core": {
                    "sourceId": "Compendium.pf2e.bestiary-ability-glossary-srd.qCCLZhnp2HhP3Ex6"
                }
            },
            "img": "systems/pf2e/icons/actions/Passive.webp",
            "name": "Darkvision",
            "sort": 200000,
            "type": "action"
        },
        {
            "_id": "ACHlnYzXVxizzqPw",
            "data": {
                "actionCategory": {
                    "value": "defensive"
                },
                "actionType": {
                    "value": "passive"
                },
                "actions": {
                    "value": null
                },
                "description": {
                    "value": "<p>An object shedding magical light (such as from the <em>@Compendium[pf2e.spells-srd.Light]{Light}</em> spell) is treated as magical when used to attack the shadow.</p>"
                },
                "requirements": {
                    "value": ""
                },
                "rules": [],
                "slug": null,
                "source": {
                    "value": ""
                },
                "traits": {
                    "custom": "",
                    "rarity": {
                        "value": "common"
                    },
                    "value": []
                },
                "trigger": {
                    "value": ""
                },
                "weapon": {
                    "value": ""
                }
            },
            "effects": [],
            "flags": {},
            "img": "systems/pf2e/icons/actions/Passive.webp",
            "name": "Light Vulnerability",
            "sort": 300000,
            "type": "action"
        },
        {
            "_id": "0Qt9ULbGzJV8ZG3W",
            "data": {
                "actionCategory": {
                    "value": "offensive"
                },
                "actionType": {
                    "value": "passive"
                },
                "actions": {
                    "value": null
                },
                "description": {
                    "value": "<p>When a creature's shadow is pulled free by Steal Shadow, it becomes a shadow spawn under the command of the shadow that created it. This shadow spawn doesn't have Steal Shadow and is perpetually and incurably @Compendium[pf2e.conditionitems.Clumsy]{Clumsy 2}.</p>\n<p>If the creature the shadow spawn was pulled from dies, the shadow spawn becomes a full-fledged, autonomous shadow. If the creature recovers from its enfeeblement, its shadow returns to it and the shadow spawn is extinguished.</p>"
                },
                "requirements": {
                    "value": ""
                },
                "rules": [],
                "slug": null,
                "source": {
                    "value": ""
                },
                "traits": {
                    "custom": "",
                    "rarity": {
                        "value": "common"
                    },
                    "value": []
                },
                "trigger": {
                    "value": ""
                },
                "weapon": {
                    "value": ""
                }
            },
            "effects": [],
            "flags": {},
            "img": "systems/pf2e/icons/actions/Passive.webp",
            "name": "Shadow Spawn",
            "sort": 400000,
            "type": "action"
        },
        {
            "_id": "0QWVJ7Of8cQNKp0N",
            "data": {
                "actionCategory": {
                    "value": "offensive"
                },
                "actionType": {
                    "value": "passive"
                },
                "actions": {
                    "value": null
                },
                "description": {
                    "value": "<p>The shadow can @Compendium[pf2e.actionspf2e.Hide]{Hide} or end its @Compendium[pf2e.actionspf2e.Sneak]{Sneak} in a creature's or object's shadow.</p>"
                },
                "requirements": {
                    "value": ""
                },
                "rules": [],
                "slug": null,
                "source": {
                    "value": ""
                },
                "traits": {
                    "custom": "",
                    "rarity": {
                        "value": "common"
                    },
                    "value": []
                },
                "trigger": {
                    "value": ""
                },
                "weapon": {
                    "value": ""
                }
            },
            "effects": [],
            "flags": {},
            "img": "systems/pf2e/icons/actions/Passive.webp",
            "name": "Slink in Shadows",
            "sort": 500000,
            "type": "action"
        },
        {
            "_id": "Kjifw1jgDvfmrEGU",
            "data": {
                "actionCategory": {
                    "value": "offensive"
                },
                "actionType": {
                    "value": "action"
                },
                "actions": {
                    "value": 1
                },
                "description": {
                    "value": "<p><strong>Requirement</strong> The shadow hit a living creature with a shadow hand Strike on its previous action.</p>\n<p><strong>Effect</strong> The shadow pulls at the target's shadow, making the creature @Compendium[pf2e.conditionitems.Enfeebled]{Enfeebled 1}. This is cumulative with other Enfeebled conditions from shadows, to a maximum of Enfeebled 4.<span data-visibility=\"gm\"> If this increases a creature's Enfeebled value to 3 or more, the target's shadow is separated from its body.</span></p>\n<p data-visibility=\"gm\">Enfeebled from Steal Shadow decreases by 1 every hour.</p>"
                },
                "requirements": {
                    "value": ""
                },
                "rules": [],
                "slug": null,
                "source": {
                    "value": ""
                },
                "traits": {
                    "custom": "",
                    "rarity": {
                        "value": "common"
                    },
                    "value": [
                        "divine",
                        "necromancy"
                    ]
                },
                "trigger": {
                    "value": ""
                },
                "weapon": {
                    "value": ""
                }
            },
            "effects": [],
            "flags": {},
            "img": "systems/pf2e/icons/actions/OneAction.webp",
            "name": "Steal Shadow",
            "sort": 600000,
            "type": "action"
        },
        {
            "_id": "MN0vvAiaLlor6r9T",
            "data": {
                "description": {
                    "value": ""
                },
                "item": {
                    "value": 0
                },
                "mod": {
                    "value": 10
                },
                "proficient": {
                    "value": 0
                },
                "rules": [],
                "slug": null,
                "source": {
                    "value": ""
                },
                "traits": {
                    "custom": "",
                    "rarity": {
                        "value": "common"
                    },
                    "value": []
                }
            },
            "effects": [],
            "flags": {},
            "img": "systems/pf2e/icons/default-icons/lore.svg",
            "name": "Acrobatics",
            "sort": 700000,
            "type": "lore"
        },
        {
            "_id": "vJe05g3F9QTjJFzu",
            "data": {
                "description": {
                    "value": ""
                },
                "item": {
                    "value": 0
                },
                "mod": {
                    "value": 14
                },
                "proficient": {
                    "value": 0
                },
                "rules": [],
                "slug": null,
                "source": {
                    "value": ""
                },
                "traits": {
                    "custom": "",
                    "rarity": {
                        "value": "common"
                    },
                    "value": []
                }
            },
            "effects": [],
            "flags": {},
            "img": "systems/pf2e/icons/default-icons/lore.svg",
            "name": "Stealth",
            "sort": 800000,
            "type": "lore"
        }
    ],
    "name": "Shadow",
    "token": {
        "disposition": -1,
        "height": 1,
        "img": "systems/pf2e/icons/default-icons/npc.svg",
        "name": "Shadow",
        "width": 1
    },
    "type": "npc"
}
