{
    "_id": "Tkf33YglEZcZ6gOT",
    "data": {
        "description": {
            "value": "<p>Creatures within 30 feet of the jinxer that are currently afflicted by a poison immediately attempt their next saving throw against the poison with a -2 status penalty, then are temporarily immune to Curse of Baleful Venom for 1 hour.</p>"
        },
        "duration": {
            "expiry": "turn-start",
            "sustained": false,
            "unit": "unlimited",
            "value": -1
        },
        "level": {
            "value": 1
        },
        "rules": [
            {
                "key": "FlatModifier",
                "label": "Curse of the Baneful Venom",
                "predicate": {
                    "all": [
                        "poison"
                    ]
                },
                "selector": "saving-throw",
                "type": "status",
                "value": -2
            }
        ],
        "source": {
            "value": "Pathfinder #170: Spoken on the Song Wind"
        },
        "start": {
            "initiative": null,
            "value": 0
        },
        "target": null,
        "tokenIcon": {
            "show": true
        },
        "traits": {
            "custom": "",
            "rarity": {
                "value": "common"
            },
            "value": []
        }
    },
    "effects": [],
    "flags": {},
    "img": "systems/pf2e/icons/default-icons/effect.svg",
    "name": "Effect: Curse of the Baneful Venom",
    "type": "effect"
}
