{
    "_id": "Qomp2EujVCbzJb4X",
    "data": {
        "description": {
            "value": "<p>Each creature in the area must succeed at a reflex save or take a -10-foot penalty to its Speeds for 1 minute.</p>"
        },
        "duration": {
            "expiry": "turn-start",
            "sustained": false,
            "unit": "minutes",
            "value": 1
        },
        "level": {
            "value": 1
        },
        "rules": [
            {
                "key": "FlatModifier",
                "label": "Filth Wave",
                "selector": "speed",
                "type": "untyped",
                "value": -10
            }
        ],
        "source": {
            "value": "Pathfinder Bestiary"
        },
        "start": {
            "initiative": null,
            "value": 0
        },
        "target": null,
        "tokenIcon": {
            "show": true
        },
        "traits": {
            "custom": "",
            "rarity": {
                "value": "common"
            },
            "value": []
        }
    },
    "effects": [],
    "flags": {},
    "img": "systems/pf2e/icons/default-icons/effect.svg",
    "name": "Effect: Filth Wave",
    "type": "effect"
}
