{
    "_id": "0MLuHRkOADrmm7Fa",
    "content": "<p>Play at the start of your turn.</p>\n<hr />\n<p>Once during your turn, you can Activate an item to @Compendium[pf2e.actionspf2e.Cast a Spell]{Cast a Spell}, even if you can't normally cast spells or don't have that spell on your spell list. After casting this spell, your turn ends.</p>",
    "flags": {},
    "name": "I Hope This Works",
    "permission": {
        "default": 0
    }
}
