{
    "_id": "IhniEmlnkb3pFRZG",
    "data": {
        "attributes": {
            "ac": {
                "check": 0,
                "details": "",
                "value": 19
            },
            "collisionDC": {
                "value": 22
            },
            "collisionDamage": {
                "value": "4d10"
            },
            "hardness": 5,
            "hp": {
                "brokenThreshold": 5,
                "details": "",
                "max": 80,
                "temp": 0,
                "value": 80
            }
        },
        "details": {
            "AC": 0,
            "crew": "1 pilot",
            "description": "<p>A clockwork hopper is similar in form to a large rabbit, making hop-like strides that avoid terrain impediments, though the lurching hops can be bumpy and cause motion sickness in some riders.</p>",
            "level": {
                "value": 6
            },
            "passengers": "2",
            "pilotingCheck": "Driving Lore (DC 22) or Crafting (DC 24)",
            "price": 750,
            "space": {
                "high": 12,
                "long": 10,
                "wide": 10
            },
            "speed": "Speed 35 feet (clockwork)"
        },
        "saves": {
            "fortitude": {
                "item": 0,
                "rank": 0,
                "saveDetail": "",
                "value": 14
            }
        },
        "source": {
            "value": "Pathfinder Guns & Gears"
        },
        "traits": {
            "ci": [],
            "di": {
                "custom": "",
                "value": [
                    "critical-hits",
                    "object-immunities",
                    "precision"
                ]
            },
            "dr": [],
            "dv": [],
            "rarity": {
                "value": "uncommon"
            },
            "size": {
                "value": "lg"
            },
            "traits": {
                "custom": "",
                "value": []
            }
        }
    },
    "effects": [],
    "flags": {},
    "img": "systems/pf2e/icons/default-icons/vehicle.svg",
    "items": [
        {
            "_id": "gafl9oZCmfSGtfxj",
            "data": {
                "actionCategory": {
                    "value": ""
                },
                "actionType": {
                    "value": "passive"
                },
                "actions": {
                    "value": null
                },
                "description": {
                    "value": "<p>This vehicle hops across the terrain as it moves across the ground. The clockwork hopper ignores difficult terrain from earth, rock, rubble, slopes, and underbrush, and greater difficult terrain caused by those features is normal difficult terrain to the clockwork hopper.</p>"
                },
                "requirements": {
                    "value": ""
                },
                "rules": [],
                "slug": null,
                "source": {
                    "value": ""
                },
                "traits": {
                    "custom": "",
                    "rarity": {
                        "value": "common"
                    },
                    "value": []
                },
                "trigger": {
                    "value": ""
                }
            },
            "effects": [],
            "flags": {},
            "img": "systems/pf2e/icons/actions/Passive.webp",
            "name": "Hopper",
            "sort": 0,
            "type": "action"
        },
        {
            "_id": "zEf7XS6RlEjM0VSO",
            "data": {
                "actionCategory": {
                    "value": ""
                },
                "actionType": {
                    "value": "passive"
                },
                "actions": {
                    "value": null
                },
                "description": {
                    "value": "<p>10 minutes of wind-up, 1 hour of operational time, DC 22, standby</p>"
                },
                "requirements": {
                    "value": ""
                },
                "rules": [],
                "slug": null,
                "source": {
                    "value": ""
                },
                "traits": {
                    "custom": "",
                    "rarity": {
                        "value": "common"
                    },
                    "value": []
                },
                "trigger": {
                    "value": ""
                }
            },
            "effects": [],
            "flags": {},
            "img": "systems/pf2e/icons/actions/Passive.webp",
            "name": "Wind-Up",
            "sort": 0,
            "type": "action"
        },
        {
            "_id": "uP38cyn9BsX8ni0O",
            "data": {
                "actionCategory": {
                    "value": "interaction"
                },
                "actionType": {
                    "value": "action"
                },
                "actions": {
                    "value": 3
                },
                "description": {
                    "value": "<p>The pilot engages a spring-driven mechanism that rockets the clockwork hopper into the air, in a grand leap. The vehicle jumps in a straight line in the direction of its current heading without touching the ground, landing in a space of solid ground up to 70 feet forward and up to 30 feet up. Creatures adjacent to the spaces a hopper lands in take [[/r {4d10}[bludgeoning]]]{4d10 Bludgeoning Damage} with a <span data-pf2-check=\"reflex\" data-pf2-traits=\"\" data-pf2-label=\"Avoid clockwork hopper DC\" data-pf2-dc=\"22\" data-pf2-show-dc=\"gm\">basic Reflex</span>, and are knocked @Compendium[pf2e.conditionitems.Prone]{Prone} on a critical failure. The clockwork hopper can't use Massive Jump again for 1 minute. Massive Jump stops working if the clockwork hopper is @Compendium[pf2e.conditionitems.Broken]{Broken}.</p>"
                },
                "requirements": {
                    "value": ""
                },
                "rules": [],
                "slug": null,
                "source": {
                    "value": ""
                },
                "traits": {
                    "custom": "",
                    "rarity": {
                        "value": "common"
                    },
                    "value": [
                        "move",
                        "reckless"
                    ]
                },
                "trigger": {
                    "value": ""
                }
            },
            "effects": [],
            "flags": {},
            "img": "systems/pf2e/icons/actions/ThreeActions.webp",
            "name": "massive Jump",
            "sort": 0,
            "type": "action"
        }
    ],
    "name": "Clockwork Hopper",
    "token": {
        "disposition": 0,
        "height": 2,
        "img": "systems/pf2e/icons/default-icons/vehicle.svg",
        "name": "Clockwork Hopper",
        "width": 2
    },
    "type": "vehicle"
}
